\relax 
\providecommand\hyper@newdestlabel[2]{}
\providecommand\HyperFirstAtBeginDocument{\AtBeginDocument}
\HyperFirstAtBeginDocument{\ifx\hyper@anchor\@undefined
\global\let\oldcontentsline\contentsline
\gdef\contentsline#1#2#3#4{\oldcontentsline{#1}{#2}{#3}}
\global\let\oldnewlabel\newlabel
\gdef\newlabel#1#2{\newlabelxx{#1}#2}
\gdef\newlabelxx#1#2#3#4#5#6{\oldnewlabel{#1}{{#2}{#3}}}
\AtEndDocument{\ifx\hyper@anchor\@undefined
\let\contentsline\oldcontentsline
\let\newlabel\oldnewlabel
\fi}
\fi}
\global\let\hyper@last\relax 
\gdef\HyperFirstAtBeginDocument#1{#1}
\providecommand\HyField@AuxAddToFields[1]{}
\providecommand\HyField@AuxAddToCoFields[2]{}
\catcode `"\active 
\select@language{american}
\@writefile{toc}{\select@language{american}}
\@writefile{lof}{\select@language{american}}
\@writefile{lot}{\select@language{american}}
\select@language{american}
\@writefile{toc}{\select@language{american}}
\@writefile{lof}{\select@language{american}}
\@writefile{lot}{\select@language{american}}
\select@language{brazil}
\@writefile{toc}{\select@language{brazil}}
\@writefile{lof}{\select@language{brazil}}
\@writefile{lot}{\select@language{brazil}}
\citation{cooper2012integrated}
\citation{cooper2012integrated}
\citation{teodoro2014region}
\citation{teodoro2014region}
\citation{teodoro2017algorithm}
\citation{teodoro2017algorithm}
\@writefile{brf}{\backcite{cooper2012integrated}{{x}{(document)}{Doc-Start}}}
\@writefile{brf}{\backcite{teodoro2014region}{{x}{(document)}{Doc-Start}}}
\citation{tiwari2011online}
\citation{tiwari2011online}
\citation{aji2013hadoop}
\citation{aji2013hadoop}
\citation{images15}
\citation{images15}
\@writefile{brf}{\backcite{teodoro2017algorithm}{{xi}{(document)}{Doc-Start}}}
\@writefile{brf}{\backcite{tiwari2011online}{{xi}{(document)}{Doc-Start}}}
\@writefile{brf}{\backcite{aji2013hadoop}{{xi}{(document)}{Doc-Start}}}
\@writefile{brf}{\backcite{images15}{{xi}{(document)}{Doc-Start}}}
\citation{cooper2012integrated}
\citation{cooper2012integrated}
\citation{cooper2012integrated,teodoro2015application}
\citation{cooper2012integrated}
\citation{teodoro2015application}
\citation{teodoro2014region}
\citation{teodoro2014region}
\citation{kong2013machine}
\citation{kong2013machine}
\citation{kong2013machine,veta2013automatic,coelho2009nuclear,stegmaier2016reali,liang20153d,liang2015liver}
\citation{coelho2009nuclear}
\citation{kong2013machine}
\citation{liang20153d}
\citation{liang2015liver}
\citation{veta2013automatic}
\citation{stegmaier2016reali}
\citation{teodoro2017algorithm}
\citation{teodoro2017algorithm}
\@writefile{toc}{\contentsline {chapter}{\numberline {1}Introdu\IeC {\c c}\IeC {\~a}o}{1}{chapter.1}}
\@writefile{lof}{\addvspace {10\p@ }}
\@writefile{lot}{\addvspace {10\p@ }}
\@writefile{loa}{\addvspace {10\p@ }}
\@writefile{brf}{\backcite{cooper2012integrated}{{1}{1}{chapter.1}}}
\@writefile{brf}{\backcite{cooper2012integrated}{{1}{1}{chapter.1}}}
\@writefile{brf}{\backcite{teodoro2015application}{{1}{1}{chapter.1}}}
\@writefile{brf}{\backcite{teodoro2014region}{{1}{1}{chapter.1}}}
\@writefile{brf}{\backcite{kong2013machine}{{1}{1}{chapter.1}}}
\citation{teodoro2014region}
\citation{teodoro2014region}
\@writefile{brf}{\backcite{coelho2009nuclear}{{2}{1}{chapter.1}}}
\@writefile{brf}{\backcite{kong2013machine}{{2}{1}{chapter.1}}}
\@writefile{brf}{\backcite{liang20153d}{{2}{1}{chapter.1}}}
\@writefile{brf}{\backcite{liang2015liver}{{2}{1}{chapter.1}}}
\@writefile{brf}{\backcite{liang2015liver}{{2}{1}{chapter.1}}}
\@writefile{brf}{\backcite{veta2013automatic}{{2}{1}{chapter.1}}}
\@writefile{brf}{\backcite{teodoro2017algorithm}{{2}{1}{chapter.1}}}
\@writefile{brf}{\backcite{teodoro2014region}{{2}{1}{chapter.1}}}
\citation{images15}
\citation{images15}
\citation{images15}
\citation{images15}
\citation{images15}
\citation{images15}
\citation{images15}
\citation{images15}
\citation{images15}
\citation{images15}
\citation{images15}
\citation{images15}
\citation{deb1998genetic,michalewicz2013genetic}
\citation{deb1998genetic}
\citation{michalewicz2013genetic}
\citation{Nelder01011965}
\citation{Nelder01011965}
\citation{tiwari2011online}
\citation{tiwari2011online}
\citation{snoek2012practical}
\citation{snoek2012practical}
\@writefile{brf}{\backcite{images15}{{4}{1.1a}{figure.caption.7}}}
\providecommand*\caption@xref[2]{\@setref\relax\@undefined{#1}}
\newlabel{fig:wsi6-in}{{1.1a}{4}{Exemplo de imagem de tecido humano utilizada como entrada para o estágio de segmentação das aplicações exemplo \cite {images15}.\relax }{figure.caption.7}{}}
\newlabel{sub@fig:wsi6-in}{{a}{4}{Exemplo de imagem de tecido humano utilizada como entrada para o estágio de segmentação das aplicações exemplo \cite {images15}.\relax }{figure.caption.7}{}}
\@writefile{brf}{\backcite{images15}{{4}{1.1b}{figure.caption.7}}}
\newlabel{fig:wsi6-intermediate}{{1.1b}{4}{Anotações manuais do patologista especialista na imagem (a). As partes circuladas são as células identificadas por ele. Elas serão pintadas de branco na máscara de referência (c) \cite {images15}.\\\relax }{figure.caption.7}{}}
\newlabel{sub@fig:wsi6-intermediate}{{b}{4}{Anotações manuais do patologista especialista na imagem (a). As partes circuladas são as células identificadas por ele. Elas serão pintadas de branco na máscara de referência (c) \cite {images15}.\\\relax }{figure.caption.7}{}}
\@writefile{brf}{\backcite{images15}{{4}{1.1c}{figure.caption.7}}}
\newlabel{fig:wsi6-ref}{{1.1c}{4}{Exemplo de máscara gerada a partir das anotações manuais do patologista. A saída do estágio de segmentação das aplicações exemplo produzem máscaras semelhantes a esta \cite {images15}. \relax }{figure.caption.7}{}}
\newlabel{sub@fig:wsi6-ref}{{c}{4}{Exemplo de máscara gerada a partir das anotações manuais do patologista. A saída do estágio de segmentação das aplicações exemplo produzem máscaras semelhantes a esta \cite {images15}. \relax }{figure.caption.7}{}}
\@writefile{lof}{\contentsline {figure}{\numberline {1.1}{\ignorespaces Exemplo de uma imagem de tecido humano que pode ser analisada pelas aplica\IeC {\c c}\IeC {\~o}es de bioinform\IeC {\'a}tica utilizadas como exemplo neste trabalho.\relax }}{4}{figure.caption.7}}
\newlabel{fig:in-intermediate-out}{{1.1}{4}{Exemplo de uma imagem de tecido humano que pode ser analisada pelas aplicações de bioinformática utilizadas como exemplo neste trabalho.\relax }{figure.caption.7}{}}
\@writefile{brf}{\backcite{deb1998genetic}{{4}{1}{figure.caption.7}}}
\@writefile{brf}{\backcite{michalewicz2013genetic}{{4}{1}{figure.caption.7}}}
\@writefile{brf}{\backcite{Nelder01011965}{{4}{1}{figure.caption.7}}}
\@writefile{brf}{\backcite{tiwari2011online}{{4}{1}{figure.caption.7}}}
\@writefile{brf}{\backcite{snoek2012practical}{{4}{1}{figure.caption.7}}}
\@writefile{toc}{\contentsline {section}{\numberline {1.1}Problema}{4}{section.1.1}}
\citation{teodoro2017algorithm}
\citation{teodoro2017algorithm}
\@writefile{toc}{\contentsline {section}{\numberline {1.2}Principais Contribui\IeC {\c c}\IeC {\~o}es deste Trabalho}{5}{section.1.2}}
\@writefile{toc}{\contentsline {section}{\numberline {1.3}Contribui\IeC {\c c}\IeC {\~o}es Espec\IeC {\'\i }ficas}{5}{section.1.3}}
\@writefile{brf}{\backcite{teodoro2017algorithm}{{5}{1.3}{section.1.3}}}
\@writefile{toc}{\contentsline {section}{\numberline {1.4}Organiza\IeC {\c c}\IeC {\~a}o do Texto}{6}{section.1.4}}
\citation{veta2013automatic}
\citation{veta2013automatic}
\citation{cooper2012integrated,teodoro2014region,rossetti2017dynamic}
\citation{cooper2012integrated}
\citation{rossetti2017dynamic}
\citation{teodoro2014region}
\citation{coelho2009nuclear,di2010automated,kong2016robust,liang2016framework,kong2015automated,zhang2017automated}
\citation{coelho2009nuclear}
\citation{di2010automated}
\citation{kong2015automated}
\citation{kong2016robust}
\citation{liang2016framework}
\citation{zhang2017automated}
\citation{cooper2012integrated}
\citation{cooper2012integrated}
\citation{cooper2012integrated}
\citation{cooper2012integrated}
\citation{teodoro2014region}
\citation{teodoro2014region}
\citation{teodoro2014region,teodoro2015application}
\citation{teodoro2015application}
\citation{teodoro2014region}
\citation{Teodoro-IPDPS2012}
\citation{Teodoro-IPDPS2012}
\@writefile{toc}{\contentsline {chapter}{\numberline {2}Referencial Te\IeC {\'o}rico}{7}{chapter.2}}
\@writefile{lof}{\addvspace {10\p@ }}
\@writefile{lot}{\addvspace {10\p@ }}
\@writefile{loa}{\addvspace {10\p@ }}
\newlabel{chap:literature}{{2}{7}{Referencial Teórico}{chapter.2}{}}
\@writefile{toc}{\contentsline {section}{\numberline {2.1}An\IeC {\'a}lise de Imagens em Patologia}{7}{section.2.1}}
\newlabel{sec:patology-analysis}{{2.1}{7}{Análise de Imagens em Patologia}{section.2.1}{}}
\@writefile{brf}{\backcite{veta2013automatic}{{7}{2.1}{section.2.1}}}
\@writefile{brf}{\backcite{cooper2012integrated}{{7}{2.1}{section.2.1}}}
\@writefile{brf}{\backcite{rossetti2017dynamic}{{7}{2.1}{section.2.1}}}
\@writefile{brf}{\backcite{teodoro2014region}{{7}{2.1}{section.2.1}}}
\@writefile{brf}{\backcite{coelho2009nuclear}{{7}{2.1}{section.2.1}}}
\@writefile{brf}{\backcite{di2010automated}{{7}{2.1}{section.2.1}}}
\@writefile{brf}{\backcite{kong2015automated}{{7}{2.1}{section.2.1}}}
\@writefile{brf}{\backcite{kong2016robust}{{7}{2.1}{section.2.1}}}
\@writefile{brf}{\backcite{kong2016robust}{{7}{2.1}{section.2.1}}}
\@writefile{brf}{\backcite{liang2016framework}{{7}{2.1}{section.2.1}}}
\@writefile{brf}{\backcite{zhang2017automated}{{7}{2.1}{section.2.1}}}
\citation{tcga,kong2011silico}
\citation{kong2011silico}
\citation{tcga}
\citation{tumorbank-inca}
\citation{tumorbank-inca}
\citation{tumorbank-accamargo}
\citation{tumorbank-accamargo}
\citation{tumorbank-brazil}
\citation{tumorbank-brazil}
\citation{tumorbank-brazil}
\citation{tumorbank-brazil}
\newlabel{fig:wsi-img}{{2.1a}{8}{Imagem antes da segmentação.\relax }{figure.caption.8}{}}
\newlabel{sub@fig:wsi-img}{{a}{8}{Imagem antes da segmentação.\relax }{figure.caption.8}{}}
\newlabel{fig:wsi-seg}{{2.1b}{8}{Máscara gerada após a segmentação. As máscaras geradas pelo processo de segmentação são compostas de duas cores: branco e preto, sendo que a primeira serve para identificar os objetos (células nesse caso) e a segunda para identificar o fundo.\relax }{figure.caption.8}{}}
\newlabel{sub@fig:wsi-seg}{{b}{8}{Máscara gerada após a segmentação. As máscaras geradas pelo processo de segmentação são compostas de duas cores: branco e preto, sendo que a primeira serve para identificar os objetos (células nesse caso) e a segunda para identificar o fundo.\relax }{figure.caption.8}{}}
\@writefile{lof}{\contentsline {figure}{\numberline {2.1}{\ignorespaces Recorte de uma imagem digital de slides de tecido humano (WSI) \cite  {cooper2012integrated}.\relax }}{8}{figure.caption.8}}
\@writefile{brf}{\backcite{cooper2012integrated}{{8}{2.1}{figure.caption.8}}}
\newlabel{fig:wsi}{{2.1}{8}{Recorte de uma imagem digital de slides de tecido humano (WSI) \cite {cooper2012integrated}.\relax }{figure.caption.8}{}}
\@writefile{brf}{\backcite{teodoro2014region}{{8}{2.1}{figure.caption.8}}}
\@writefile{brf}{\backcite{teodoro2015application}{{8}{2.1}{figure.caption.8}}}
\@writefile{brf}{\backcite{teodoro2014region}{{8}{2.1}{figure.caption.8}}}
\@writefile{brf}{\backcite{Teodoro-IPDPS2012}{{8}{2.1}{figure.caption.8}}}
\@writefile{brf}{\backcite{kong2011silico}{{8}{2.1}{figure.caption.8}}}
\@writefile{brf}{\backcite{tcga}{{8}{2.1}{figure.caption.8}}}
\citation{kong2013machine}
\citation{kong2013machine}
\citation{gao2016}
\citation{gao2016}
\@writefile{brf}{\backcite{tumorbank-inca}{{9}{2.1}{figure.caption.8}}}
\@writefile{brf}{\backcite{tumorbank-accamargo}{{9}{2.1}{figure.caption.8}}}
\@writefile{brf}{\backcite{tumorbank-brazil}{{9}{2.1}{figure.caption.8}}}
\@writefile{brf}{\backcite{tumorbank-brazil}{{9}{2.1}{figure.caption.8}}}
\@writefile{toc}{\contentsline {section}{\numberline {2.2}Casos de Uso}{9}{section.2.2}}
\newlabel{sec:use-case}{{2.2}{9}{Casos de Uso}{section.2.2}{}}
\@writefile{brf}{\backcite{kong2013machine}{{9}{2.2}{section.2.2}}}
\@writefile{brf}{\backcite{gao2016}{{9}{2.2}{section.2.2}}}
\citation{al2010improved}
\citation{al2010improved}
\citation{pretorius2015visual}
\citation{pretorius2015visual}
\@writefile{lot}{\contentsline {table}{\numberline {2.1}{\ignorespaces Lista dos 15 par\IeC {\^a}metros do est\IeC {\'a}gio de segmenta\IeC {\c c}\IeC {\~a}o da aplica\IeC {\c c}\IeC {\~a}o baseada em Opera\IeC {\c c}\IeC {\~o}es Morfol\IeC {\'o}gicas. O espa\IeC {\c c}o de busca desse est\IeC {\'a}gio \IeC {\'e} de aproximadamente 21,4 trilh\IeC {\~o}es de pontos.\relax }}{10}{table.caption.9}}
\newlabel{tab:parameters-morphologic}{{2.1}{10}{Lista dos 15 parâmetros do estágio de segmentação da aplicação baseada em Operações Morfológicas. O espaço de busca desse estágio é de aproximadamente 21,4 trilhões de pontos.\relax }{table.caption.9}{}}
\@writefile{lof}{\contentsline {figure}{\numberline {2.2}{\ignorespaces Fluxo de opera\IeC {\c c}\IeC {\~o}es baseado em Opera\IeC {\c c}\IeC {\~o}es Morfol\IeC {\'o}gicas.}}{10}{figure.caption.10}}
\newlabel{fig:workflow-watershed}{{2.2}{10}{Fluxo de operações baseado em Operações Morfológicas}{figure.caption.10}{}}
\@writefile{lot}{\contentsline {table}{\numberline {2.2}{\ignorespaces Lista dos 7 par\IeC {\^a}metros do est\IeC {\'a}gio de segmenta\IeC {\c c}\IeC {\~a}o da segunda aplica\IeC {\c c}\IeC {\~a}o, baseada em \emph  {Level Set}. O espa\IeC {\c c}o de busca desse est\IeC {\'a}gio \IeC {\'e} de aproximadamente 2,8 bilh\IeC {\~o}es de pontos.\relax }}{10}{table.caption.11}}
\newlabel{tab:parameters-level-set}{{2.2}{10}{Lista dos 7 parâmetros do estágio de segmentação da segunda aplicação, baseada em \emph {Level Set}. O espaço de busca desse estágio é de aproximadamente 2,8 bilhões de pontos.\relax }{table.caption.11}{}}
\citation{images15}
\citation{images15}
\citation{images15}
\citation{images15}
\@writefile{lof}{\contentsline {figure}{\numberline {2.3}{\ignorespaces Fluxo de opera\IeC {\c c}\IeC {\~o}es baseado em \emph  {Level Set}.}}{11}{figure.caption.12}}
\newlabel{fig:workflow-level-set}{{2.3}{11}{Fluxo de operações baseado em \emph {Level Set}}{figure.caption.12}{}}
\@writefile{brf}{\backcite{al2010improved}{{11}{2.2}{figure.caption.12}}}
\@writefile{brf}{\backcite{pretorius2015visual}{{11}{2.2}{figure.caption.12}}}
\citation{teodoro2014region}
\citation{teodoro2014region}
\citation{intelmanycore,teodoro2014phi}
\citation{intelmanycore}
\citation{teodoro2014phi}
\@writefile{lof}{\contentsline {figure}{\numberline {2.4}{\ignorespaces Diferen\IeC {\c c}a de segmenta\IeC {\c c}\IeC {\~a}o entre os dois casos de uso.}}{12}{figure.caption.13}}
\@writefile{brf}{\backcite{images15}{{12}{2.4}{figure.caption.13}}}
\newlabel{fig:two-runs}{{2.4}{12}{Diferença de segmentação entre os dois casos de uso}{figure.caption.13}{}}
\@writefile{toc}{\contentsline {section}{\numberline {2.3}Region Templates}{12}{section.2.3}}
\newlabel{sec:region-templates}{{2.3}{12}{Region Templates}{section.2.3}{}}
\@writefile{brf}{\backcite{teodoro2014region}{{12}{2.3}{section.2.3}}}
\@writefile{lof}{\contentsline {figure}{\numberline {2.5}{\ignorespaces Exemplo de aplica\IeC {\c c}\IeC {\~a}o hier\IeC {\'a}rquica.}}{13}{figure.caption.14}}
\newlabel{fig:appDataflow}{{2.5}{13}{Exemplo de aplicação hierárquica}{figure.caption.14}{}}
\@writefile{brf}{\backcite{intelmanycore}{{13}{3}{section.2.3}}}
\@writefile{brf}{\backcite{teodoro2014phi}{{13}{3}{section.2.3}}}
\@writefile{lof}{\contentsline {figure}{\numberline {2.6}{\ignorespaces Arquitetura do Region Templates.}}{14}{figure.caption.15}}
\newlabel{fig:rt-arch-2}{{2.6}{14}{Arquitetura do Region Templates}{figure.caption.15}{}}
\@writefile{toc}{\contentsline {subsection}{\numberline {2.3.1}Estruturas de Dados Otimizadas}{14}{subsection.2.3.1}}
\citation{teodoro2014region}
\citation{teodoro2014region}
\citation{teodoro2014region}
\citation{teodoro2014region}
\citation{teodoro2017algorithm,kurc2015scalable,teodoro2013efficient,gomes2015efficient}
\citation{gomes2015efficient}
\citation{kurc2015scalable}
\citation{teodoro2017algorithm}
\citation{teodoro2013efficient}
\citation{klie2006models,kurc2005simulation,shock1998design,chang1997titan}
\citation{chang1997titan}
\citation{klie2006models}
\citation{kurc2005simulation}
\citation{shock1998design}
\@writefile{brf}{\backcite{gomes2015efficient}{{15}{2.3.1}{figure.caption.16}}}
\@writefile{brf}{\backcite{kurc2015scalable}{{15}{2.3.1}{figure.caption.16}}}
\@writefile{brf}{\backcite{teodoro2017algorithm}{{15}{2.3.1}{figure.caption.16}}}
\@writefile{brf}{\backcite{teodoro2013efficient}{{15}{2.3.1}{figure.caption.16}}}
\@writefile{brf}{\backcite{chang1997titan}{{15}{2.3.1}{figure.caption.16}}}
\@writefile{brf}{\backcite{klie2006models}{{15}{2.3.1}{figure.caption.16}}}
\@writefile{brf}{\backcite{kurc2005simulation}{{15}{2.3.1}{figure.caption.16}}}
\@writefile{brf}{\backcite{shock1998design}{{15}{2.3.1}{figure.caption.16}}}
\@writefile{toc}{\contentsline {subsection}{\numberline {2.3.2}Plataforma de Execu\IeC {\c c}\IeC {\~a}o Distribu\IeC {\'\i }da}{15}{subsection.2.3.2}}
\newlabel{fig:code-rt}{{2.7a}{16}{Classe simplificada do Modelo de Região.\relax }{figure.caption.16}{}}
\newlabel{sub@fig:code-rt}{{a}{16}{Classe simplificada do Modelo de Região.\relax }{figure.caption.16}{}}
\newlabel{fig:code-dataregion}{{2.7b}{16}{Classe simplificada da Região de Dados.\\\relax }{figure.caption.16}{}}
\newlabel{sub@fig:code-dataregion}{{b}{16}{Classe simplificada da Região de Dados.\\\relax }{figure.caption.16}{}}
\@writefile{lof}{\contentsline {figure}{\numberline {2.7}{\ignorespaces C\IeC {\'o}digo fonte das classes do Modelo de Regi\IeC {\~a}o e da Regi\IeC {\~a}o de Dados. Uma estrutura de dados de modelo de regi\IeC {\~a}o pode armazenar v\IeC {\'a}rias regi\IeC {\~o}es de dados, que s\IeC {\~a}o distinguidas pelo seu identificador de tupla. A regi\IeC {\~a}o de dados define uma classe base que \IeC {\'e} herdada por implementa\IeC {\c c}\IeC {\~o}es concretas de diferentes tipos de regi\IeC {\~a}o de dados. Cada aplica\IeC {\c c}\IeC {\~a}o pode implementar os seus pr\IeC {\'o}prios tipos de dados dessa forma. O sistema prov\IeC {\^e} por padr\IeC {\~a}o implementa\IeC {\c c}\IeC {\~o}es dos seguintes tipos de regi\IeC {\~a}o de dados: regi\IeC {\~o}es densas ou esparsas 1D, 2D ou 3D, pol\IeC {\'\i }gonos \cite  {teodoro2014region}.\relax }}{16}{figure.caption.16}}
\@writefile{brf}{\backcite{teodoro2014region}{{16}{2.7}{figure.caption.16}}}
\newlabel{fig:codes-rt}{{2.7}{16}{Código fonte das classes do Modelo de Região e da Região de Dados. Uma estrutura de dados de modelo de região pode armazenar várias regiões de dados, que são distinguidas pelo seu identificador de tupla. A região de dados define uma classe base que é herdada por implementações concretas de diferentes tipos de região de dados. Cada aplicação pode implementar os seus próprios tipos de dados dessa forma. O sistema provê por padrão implementações dos seguintes tipos de região de dados: regiões densas ou esparsas 1D, 2D ou 3D, polígonos \cite {teodoro2014region}.\relax }{figure.caption.16}{}}
\citation{Teodoro-IPDPS2013,Teodoro-IPDPS2012,teodoro2010run,teodoro2009coordinating,vo2016cloud}
\citation{teodoro2010run}
\citation{Teodoro-IPDPS2012}
\citation{Teodoro-IPDPS2013}
\citation{teodoro2009coordinating}
\citation{vo2016cloud}
\@writefile{lof}{\contentsline {figure}{\numberline {2.8}{\ignorespaces Modelo de execu\IeC {\c c}\IeC {\~a}o \emph  {Manager-Worker} do Region Templates.}}{18}{figure.caption.17}}
\newlabel{fig:rt-executionModel}{{2.8}{18}{Modelo de execução \emph {Manager-Worker} do Region Templates}{figure.caption.17}{}}
\@writefile{brf}{\backcite{teodoro2010run}{{18}{2.3.2}{figure.caption.17}}}
\@writefile{brf}{\backcite{Teodoro-IPDPS2012}{{18}{2.3.2}{figure.caption.17}}}
\@writefile{brf}{\backcite{Teodoro-IPDPS2013}{{18}{2.3.2}{figure.caption.17}}}
\@writefile{brf}{\backcite{teodoro2009coordinating}{{18}{2.3.2}{figure.caption.17}}}
\@writefile{brf}{\backcite{vo2016cloud}{{18}{2.3.2}{figure.caption.17}}}
\citation{coello2006evolutionary}
\citation{coello2006evolutionary}
\@writefile{toc}{\contentsline {subsection}{\numberline {2.3.3}Gerenciamento do Armazenamento de Dados e Otimiza\IeC {\c c}\IeC {\~o}es}{19}{subsection.2.3.3}}
\newlabel{sec:caching}{{2.3.3}{19}{Gerenciamento do Armazenamento de Dados e Otimizações}{subsection.2.3.3}{}}
\@writefile{toc}{\contentsline {section}{\numberline {2.4}Otimiza\IeC {\c c}\IeC {\~a}o Multiobjetivo de Par\IeC {\^a}metros}{19}{section.2.4}}
\newlabel{sec:multi-objective}{{2.4}{19}{Otimização Multiobjetivo de Parâmetros}{section.2.4}{}}
\citation{deb2008multiobjective}
\citation{deb2008multiobjective}
\citation{santos2016otimizaccao}
\citation{santos2016otimizaccao}
\citation{santos2016otimizaccao}
\citation{santos2016otimizaccao}
\@writefile{brf}{\backcite{coello2006evolutionary}{{20}{2.4}{section.2.4}}}
\@writefile{brf}{\backcite{deb2008multiobjective}{{20}{2.4}{section.2.4}}}
\@writefile{lof}{\contentsline {figure}{\numberline {2.9}{\ignorespaces Mapeamento das vari\IeC {\'a}veis do Dom\IeC {\'\i }nio (a) dos problemas multiobjetivo para a Imagem (b) (vetor de objetivos)}}{20}{figure.caption.18}}
\@writefile{brf}{\backcite{santos2016otimizaccao}{{20}{2.9}{figure.caption.18}}}
\newlabel{fig:domain-image}{{2.9}{20}{Mapeamento das variáveis do Domínio (a) dos problemas multiobjetivo para a Imagem (b) (vetor de objetivos)}{figure.caption.18}{}}
\@writefile{toc}{\contentsline {subsection}{\numberline {2.4.1}Domin\IeC {\^a}ncia, Otimalidade e Frente de Pareto}{20}{subsection.2.4.1}}
\citation{santos2016otimizaccao}
\citation{santos2016otimizaccao}
\citation{santos2016otimizaccao}
\citation{santos2016otimizaccao}
\citation{santos2016otimizaccao}
\citation{santos2016otimizaccao}
\citation{santos2016otimizaccao}
\citation{santos2016otimizaccao}
\citation{cohon1975review}
\citation{cohon1975review}
\@writefile{lof}{\contentsline {figure}{\numberline {2.10}{\ignorespaces Domin\IeC {\^a}ncia}}{21}{figure.caption.19}}
\@writefile{brf}{\backcite{santos2016otimizaccao}{{21}{2.10}{figure.caption.19}}}
\newlabel{fig:dominancia}{{2.10}{21}{Dominância}{figure.caption.19}{}}
\citation{coello2007evolutionary}
\citation{coello2007evolutionary}
\@writefile{lof}{\contentsline {figure}{\numberline {2.11}{\ignorespaces Exemplo de Frente de Pareto}}{22}{figure.caption.20}}
\@writefile{brf}{\backcite{santos2016otimizaccao}{{22}{2.11}{figure.caption.20}}}
\newlabel{fig:frente-de-pareto}{{2.11}{22}{Exemplo de Frente de Pareto}{figure.caption.20}{}}
\@writefile{toc}{\contentsline {subsection}{\numberline {2.4.2}Abordagens Para Resolu\IeC {\c c}\IeC {\~a}o de Problemas Multiobjetivo}{22}{subsection.2.4.2}}
\@writefile{brf}{\backcite{cohon1975review}{{22}{2.4.2}{subsection.2.4.2}}}
\@writefile{brf}{\backcite{coello2007evolutionary}{{22}{2.4.2}{subsection.2.4.2}}}
\citation{miettinen2002scalarizing}
\citation{miettinen2002scalarizing}
\citation{zitzler1998evolutionary,van2000multiobjective}
\citation{van2000multiobjective}
\citation{zitzler1998evolutionary}
\citation{santos2016otimizaccao}
\citation{santos2016otimizaccao}
\citation{wolpert1997no}
\citation{wolpert1997no}
\citation{linden2008algoritmos}
\citation{linden2008algoritmos}
\citation{santos2016otimizaccao}
\citation{santos2016otimizaccao}
\@writefile{brf}{\backcite{miettinen2002scalarizing}{{23}{2.4.2}{subsection.2.4.2}}}
\@writefile{toc}{\contentsline {subsection}{\numberline {2.4.3}Escalariza\IeC {\c c}\IeC {\~a}o}{23}{subsection.2.4.3}}
\@writefile{brf}{\backcite{van2000multiobjective}{{23}{2.4.3}{subsection.2.4.3}}}
\@writefile{brf}{\backcite{zitzler1998evolutionary}{{23}{2.4.3}{subsection.2.4.3}}}
\@writefile{brf}{\backcite{santos2016otimizaccao}{{23}{2.4.3}{subsection.2.4.3}}}
\@writefile{toc}{\contentsline {subsection}{\numberline {2.4.4}Teorema da Inexist\IeC {\^e}ncia de Almo\IeC {\c c}o Gr\IeC {\'a}tis}{23}{subsection.2.4.4}}
\newlabel{sec:no-lunch}{{2.4.4}{23}{Teorema da Inexistência de Almoço Grátis}{subsection.2.4.4}{}}
\@writefile{brf}{\backcite{wolpert1997no}{{23}{2.4.4}{subsection.2.4.4}}}
\@writefile{brf}{\backcite{linden2008algoritmos}{{23}{2.4.4}{subsection.2.4.4}}}
\citation{goldberg1988genetic}
\citation{goldberg1988genetic}
\citation{apostila}
\citation{apostila}
\citation{darwin1859origins}
\citation{darwin1859origins}
\@writefile{brf}{\backcite{santos2016otimizaccao}{{24}{2.4.4}{subsection.2.4.4}}}
\@writefile{toc}{\contentsline {section}{\numberline {2.5}Algoritmos Gen\IeC {\'e}ticos}{24}{section.2.5}}
\newlabel{sec:ga}{{2.5}{24}{Algoritmos Genéticos}{section.2.5}{}}
\@writefile{brf}{\backcite{goldberg1988genetic}{{24}{2.5}{section.2.5}}}
\@writefile{brf}{\backcite{apostila}{{24}{2.5}{section.2.5}}}
\citation{goldberg1988genetic,mccall2005genetic}
\citation{goldberg1988genetic}
\citation{mccall2005genetic}
\@writefile{brf}{\backcite{darwin1859origins}{{25}{2.5}{section.2.5}}}
\@writefile{brf}{\backcite{goldberg1988genetic}{{25}{2.5}{section.2.5}}}
\@writefile{brf}{\backcite{mccall2005genetic}{{25}{2.5}{section.2.5}}}
\citation{michalewicz2013genetic}
\citation{michalewicz2013genetic}
\citation{michalewicz2013genetic}
\citation{michalewicz2013genetic}
\@writefile{lof}{\contentsline {figure}{\numberline {2.12}{\ignorespaces Fluxograma de um algoritmo gen\IeC {\'e}tico t\IeC {\'\i }pico.}}{26}{figure.caption.21}}
\@writefile{brf}{\backcite{michalewicz2013genetic}{{26}{2.12}{figure.caption.21}}}
\newlabel{ga-classic:fluxograma}{{2.12}{26}{Fluxograma de um algoritmo genético típico}{figure.caption.21}{}}
\citation{darwin1859origins}
\citation{darwin1859origins}
\citation{goldberg1988genetic}
\citation{goldberg1988genetic}
\citation{mccall2005genetic}
\citation{mccall2005genetic}
\@writefile{toc}{\contentsline {paragraph}{Inicializa\IeC {\c c}\IeC {\~a}o da Popula\IeC {\c c}\IeC {\~a}o}{27}{section*.22}}
\@writefile{toc}{\contentsline {paragraph}{Avalia\IeC {\c c}\IeC {\~a}o}{27}{section*.23}}
\@writefile{brf}{\backcite{darwin1859origins}{{27}{2.5}{section*.23}}}
\@writefile{toc}{\contentsline {paragraph}{Sele\IeC {\c c}\IeC {\~a}o dos Reprodutores}{27}{section*.24}}
\@writefile{brf}{\backcite{goldberg1988genetic}{{27}{2.5}{section*.24}}}
\@writefile{brf}{\backcite{mccall2005genetic}{{27}{2.5}{section*.24}}}
\@writefile{toc}{\contentsline {paragraph}{Cruzamento (\emph  {Crossover})}{28}{section*.25}}
\@writefile{lof}{\contentsline {figure}{\numberline {2.13}{\ignorespaces \emph  {Crossover} de 1 ponto.}}{28}{figure.caption.26}}
\newlabel{fig:ga-crossover-1ponto}{{2.13}{28}{\emph {Crossover} de 1 ponto}{figure.caption.26}{}}
\@writefile{lof}{\contentsline {figure}{\numberline {2.14}{\ignorespaces \emph  {Crossover} de 2 pontos.}}{29}{figure.caption.27}}
\newlabel{fig:ga-crossover-2pontos}{{2.14}{29}{\emph {Crossover} de 2 pontos}{figure.caption.27}{}}
\@writefile{toc}{\contentsline {paragraph}{Muta\IeC {\c c}\IeC {\~a}o}{29}{section*.28}}
\@writefile{toc}{\contentsline {paragraph}{Substitui\IeC {\c c}\IeC {\~a}o}{29}{section*.29}}
\citation{kirkpatrick1983optimization,granville1994simulated}
\citation{granville1994simulated}
\citation{kirkpatrick1983optimization}
\citation{moscato1989evolution}
\citation{moscato1989evolution}
\citation{dawkins2006selfish}
\citation{dawkins2006selfish}
\citation{torsney2011tuner}
\citation{torsney2011tuner}
\citation{dice1945measures}
\citation{dice1945measures}
\citation{sedlmair2014visual}
\citation{sedlmair2014visual}
\citation{pretorius2015visual}
\citation{pretorius2015visual}
\citation{schultz2013open}
\citation{schultz2013open}
\@writefile{toc}{\contentsline {paragraph}{Arrefecimento Simulado (\emph  {Simulated Annealing})}{30}{section*.30}}
\@writefile{brf}{\backcite{granville1994simulated}{{30}{2.5}{section*.30}}}
\@writefile{brf}{\backcite{kirkpatrick1983optimization}{{30}{2.5}{section*.30}}}
\@writefile{toc}{\contentsline {paragraph}{Algoritmos Mem\IeC {\'e}ticos (\emph  {Memetic Algorithms})}{30}{section*.31}}
\@writefile{brf}{\backcite{moscato1989evolution}{{30}{2.5}{section*.31}}}
\@writefile{brf}{\backcite{dawkins2006selfish}{{30}{2.5}{section*.31}}}
\@writefile{toc}{\contentsline {section}{\numberline {2.6}Ajuste de Par\IeC {\^a}metros em Aplica\IeC {\c c}\IeC {\~o}es de Segmenta\IeC {\c c}\IeC {\~a}o}{30}{section.2.6}}
\newlabel{sec:tuning-nuclei}{{2.6}{30}{Ajuste de Parâmetros em Aplicações de Segmentação}{section.2.6}{}}
\@writefile{brf}{\backcite{torsney2011tuner}{{30}{2.6}{section.2.6}}}
\@writefile{brf}{\backcite{dice1945measures}{{30}{2.6}{section.2.6}}}
\citation{held2013approaches}
\citation{held2013approaches}
\citation{jaccard1901etude}
\citation{jaccard1901etude}
\citation{held2013towards}
\citation{held2013towards}
\citation{feitosa2006genetic}
\citation{feitosa2006genetic}
\citation{mookiah2013evolutionary}
\citation{mookiah2013evolutionary}
\citation{torsney2011tuner}
\citation{torsney2011tuner}
\citation{sedlmair2014visual}
\citation{sedlmair2014visual}
\citation{pretorius2015visual}
\citation{pretorius2015visual}
\citation{schultz2013open}
\citation{schultz2013open}
\citation{held2013approaches}
\citation{held2013approaches}
\citation{feitosa2006genetic}
\citation{feitosa2006genetic}
\citation{teodoro2017algorithm}
\citation{teodoro2017algorithm}
\@writefile{brf}{\backcite{sedlmair2014visual}{{31}{2.6}{section.2.6}}}
\@writefile{brf}{\backcite{pretorius2015visual}{{31}{2.6}{section.2.6}}}
\@writefile{brf}{\backcite{schultz2013open}{{31}{2.6}{section.2.6}}}
\@writefile{brf}{\backcite{held2013approaches}{{31}{2.6}{section.2.6}}}
\@writefile{brf}{\backcite{jaccard1901etude}{{31}{2.6}{section.2.6}}}
\@writefile{brf}{\backcite{held2013towards}{{31}{2.6}{section.2.6}}}
\@writefile{brf}{\backcite{feitosa2006genetic}{{31}{2.6}{section.2.6}}}
\@writefile{brf}{\backcite{mookiah2013evolutionary}{{31}{2.6}{section.2.6}}}
\citation{teodoro2017algorithm}
\citation{teodoro2017algorithm}
\@writefile{lot}{\contentsline {table}{\numberline {2.3}{\ignorespaces Quadro comparativo dos artigos mencionados nesta se\IeC {\c c}\IeC {\~a}o\relax }}{32}{table.caption.32}}
\newlabel{quadro-comparativo}{{2.3}{32}{Quadro comparativo dos artigos mencionados nesta seção\relax }{table.caption.32}{}}
\@writefile{brf}{\backcite{torsney2011tuner}{{32}{2.3}{table.caption.32}}}
\@writefile{brf}{\backcite{sedlmair2014visual}{{32}{2.3}{table.caption.32}}}
\@writefile{brf}{\backcite{pretorius2015visual}{{32}{2.3}{table.caption.32}}}
\@writefile{brf}{\backcite{schultz2013open}{{32}{2.3}{table.caption.32}}}
\@writefile{brf}{\backcite{held2013approaches}{{32}{2.3}{table.caption.32}}}
\@writefile{brf}{\backcite{feitosa2006genetic}{{32}{2.3}{table.caption.32}}}
\@writefile{brf}{\backcite{teodoro2017algorithm}{{32}{2.3}{table.caption.32}}}
\@writefile{brf}{\backcite{teodoro2017algorithm}{{32}{2.6}{table.caption.32}}}
\@writefile{toc}{\contentsline {chapter}{\numberline {3}Ajuste Autom\IeC {\'a}tico de Par\IeC {\^a}metros}{33}{chapter.3}}
\@writefile{lof}{\addvspace {10\p@ }}
\@writefile{lot}{\addvspace {10\p@ }}
\@writefile{loa}{\addvspace {10\p@ }}
\newlabel{chap:auto-tuning}{{3}{33}{Ajuste Automático de Parâmetros}{chapter.3}{}}
\citation{pretorius2015visual}
\citation{pretorius2015visual}
\citation{teodoro2017algorithm}
\citation{teodoro2017algorithm}
\citation{teodoro2017algorithm}
\citation{teodoro2017algorithm}
\@writefile{lof}{\contentsline {figure}{\numberline {3.1}{\ignorespaces Novos m\IeC {\'o}dulos do Region Templates}}{34}{figure.caption.33}}
\newlabel{fig:rt-arch-3}{{3.1}{34}{Novos módulos do Region Templates}{figure.caption.33}{}}
\@writefile{toc}{\contentsline {section}{\numberline {3.1}Sistema de Ajuste Autom\IeC {\'a}tico de Par\IeC {\^a}metros}{34}{section.3.1}}
\newlabel{sec:auto-tuning}{{3.1}{34}{Sistema de Ajuste Automático de Parâmetros}{section.3.1}{}}
\@writefile{brf}{\backcite{pretorius2015visual}{{34}{3.1}{section.3.1}}}
\newlabel{fig:wsi4-img}{{3.2a}{35}{Imagem do tecido antes da segmentação.\relax }{figure.caption.34}{}}
\newlabel{sub@fig:wsi4-img}{{a}{35}{Imagem do tecido antes da segmentação.\relax }{figure.caption.34}{}}
\newlabel{fig:wsi4-pato}{{3.2b}{35}{Máscara gerada pelas anotações manuais do patologista especialista na área. \relax }{figure.caption.34}{}}
\newlabel{sub@fig:wsi4-pato}{{b}{35}{Máscara gerada pelas anotações manuais do patologista especialista na área. \relax }{figure.caption.34}{}}
\newlabel{fig:wsi4-parambase}{{3.2c}{35}{Máscara gerada pela aplicação utilizando os parâmetros padrão da aplicação. \relax }{figure.caption.34}{}}
\newlabel{sub@fig:wsi4-parambase}{{c}{35}{Máscara gerada pela aplicação utilizando os parâmetros padrão da aplicação. \relax }{figure.caption.34}{}}
\newlabel{fig:wsi4-seg}{{3.2d}{35}{Máscara gerada após a otimização dos parâmetros da aplicação. \relax }{figure.caption.34}{}}
\newlabel{sub@fig:wsi4-seg}{{d}{35}{Máscara gerada após a otimização dos parâmetros da aplicação. \relax }{figure.caption.34}{}}
\newlabel{fig:wsi4-parambase-color}{{3.2e}{35}{Nesta imagem, a Fig. \ref {fig:wsi4-parambase} foi colorida para demonstrar a diferença dela com a máscara de referência (Fig. \ref {fig:wsi4-pato}).\relax }{figure.caption.34}{}}
\newlabel{sub@fig:wsi4-parambase-color}{{e}{35}{Nesta imagem, a Fig. \ref {fig:wsi4-parambase} foi colorida para demonstrar a diferença dela com a máscara de referência (Fig. \ref {fig:wsi4-pato}).\relax }{figure.caption.34}{}}
\newlabel{fig:wsi4-seg-color}{{3.2f}{35}{A máscara gerada após a otimização dos parâmetros da aplicação (Fig. \ref {fig:wsi4-seg}) foi colorida para demonstrar a diferença dela com a máscara de referência (Fig. \ref {fig:wsi4-pato}). \relax }{figure.caption.34}{}}
\newlabel{sub@fig:wsi4-seg-color}{{f}{35}{A máscara gerada após a otimização dos parâmetros da aplicação (Fig. \ref {fig:wsi4-seg}) foi colorida para demonstrar a diferença dela com a máscara de referência (Fig. \ref {fig:wsi4-pato}). \relax }{figure.caption.34}{}}
\@writefile{lof}{\contentsline {figure}{\numberline {3.2}{\ignorespaces Este conjunto de imagens demonstra o aprimoramento da qualidade das m\IeC {\'a}scaras ap\IeC {\'o}s a aplica\IeC {\c c}\IeC {\~a}o do algoritmo de otimiza\IeC {\c c}\IeC {\~a}o \cite  {teodoro2017algorithm}. Os objetos pintados de verde est\IeC {\~a}o presentes na m\IeC {\'a}scara em an\IeC {\'a}lise e na m\IeC {\'a}scara de refer\IeC {\^e}ncia, os objetos em azul correspondem aos falsos negativos e os objetos vermelhos aos falsos positivos. \relax }}{35}{figure.caption.34}}
\@writefile{brf}{\backcite{teodoro2017algorithm}{{35}{3.2}{figure.caption.34}}}
\newlabel{fig:tuning-efects}{{3.2}{35}{Este conjunto de imagens demonstra o aprimoramento da qualidade das máscaras após a aplicação do algoritmo de otimização \cite {teodoro2017algorithm}. Os objetos pintados de verde estão presentes na máscara em análise e na máscara de referência, os objetos em azul correspondem aos falsos negativos e os objetos vermelhos aos falsos positivos. \relax }{figure.caption.34}{}}
\citation{Nelder01011965}
\citation{Nelder01011965}
\citation{tiwari2011online}
\citation{tiwari2011online}
\citation{snoek2012practical}
\citation{snoek2012practical}
\citation{teodoro2017algorithm}
\citation{teodoro2017algorithm}
\citation{teodoro2017algorithm}
\citation{teodoro2017algorithm}
\@writefile{brf}{\backcite{Nelder01011965}{{36}{3.1}{figure.caption.34}}}
\@writefile{brf}{\backcite{tiwari2011online}{{36}{3.1}{figure.caption.34}}}
\@writefile{brf}{\backcite{snoek2012practical}{{36}{3.1}{figure.caption.34}}}
\citation{teodoro2017algorithm}
\citation{teodoro2017algorithm}
\citation{teodoro2017algorithm}
\citation{teodoro2017algorithm}
\@writefile{lof}{\contentsline {figure}{\numberline {3.3}{\ignorespaces Fluxo de execu\IeC {\c c}\IeC {\~a}o do caso de uso.}}{37}{figure.caption.35}}
\@writefile{brf}{\backcite{teodoro2017algorithm}{{37}{3.3}{figure.caption.35}}}
\newlabel{fig:withRT}{{3.3}{37}{Fluxo de execução do caso de uso}{figure.caption.35}{}}
\citation{ctuapucs2002active}
\citation{ctuapucs2002active}
\@writefile{lof}{\contentsline {figure}{\numberline {3.4}{\ignorespaces Arquitetura do processo autom\IeC {\'a}tico de ajuste de par\IeC {\^a}metros do Region Templates}}{38}{figure.caption.36}}
\@writefile{brf}{\backcite{teodoro2017algorithm}{{38}{3.4}{figure.caption.36}}}
\newlabel{fig:par-search}{{3.4}{38}{Arquitetura do processo automático de ajuste de parâmetros do Region Templates}{figure.caption.36}{}}
\@writefile{toc}{\contentsline {subsection}{\numberline {3.1.1}Estrat\IeC {\'e}gia de Generaliza\IeC {\c c}\IeC {\~a}o da Otimiza\IeC {\c c}\IeC {\~a}o}{38}{subsection.3.1.1}}
\@writefile{toc}{\contentsline {section}{\numberline {3.2}Algoritmos de Otimiza\IeC {\c c}\IeC {\~a}o Suportados}{38}{section.3.2}}
\citation{Nelder01011965}
\citation{Nelder01011965}
\citation{tiwari2011online}
\citation{tiwari2011online}
\citation{tiwari2011online}
\citation{tiwari2011online}
\@writefile{brf}{\backcite{ctuapucs2002active}{{39}{3.2}{section.3.2}}}
\@writefile{toc}{\contentsline {subsection}{\numberline {3.2.1}M\IeC {\'e}todo Nelder-Mead (NM)}{39}{subsection.3.2.1}}
\@writefile{brf}{\backcite{Nelder01011965}{{39}{3.2.1}{subsection.3.2.1}}}
\@writefile{brf}{\backcite{tiwari2011online}{{39}{3.2.1}{subsection.3.2.1}}}
\@writefile{lot}{\contentsline {table}{\numberline {3.1}{\ignorespaces Esta tabela lista os pol\IeC {\'\i }topos (\emph  {simplex}) de dimensionalidade 0 at\IeC {\'e} 3.\relax }}{39}{table.caption.37}}
\newlabel{simplexes}{{3.1}{39}{Esta tabela lista os polítopos (\emph {simplex}) de dimensionalidade 0 até 3.\relax }{table.caption.37}{}}
\@writefile{toc}{\contentsline {subsection}{\numberline {3.2.2}M\IeC {\'e}todo Parallel Rank Order (PRO)}{39}{subsection.3.2.2}}
\newlabel{alg:pro}{{3.2.2}{39}{Método Parallel Rank Order (PRO)}{subsection.3.2.2}{}}
\@writefile{brf}{\backcite{tiwari2011online}{{39}{3.2.2}{subsection.3.2.2}}}
\citation{tiwari2011online}
\citation{tiwari2011online}
\citation{tiwari2011online}
\citation{tiwari2011online}
\citation{snoek2012practical}
\citation{snoek2012practical}
\@writefile{lof}{\contentsline {figure}{\numberline {3.5}{\ignorespaces Processo de busca do algoritmo Parallel Rank Order (PRO) \cite  {tiwari2011online}.\relax }}{40}{figure.caption.38}}
\@writefile{brf}{\backcite{tiwari2011online}{{40}{3.5}{figure.caption.38}}}
\newlabel{fig:pro}{{3.5}{40}{Processo de busca do algoritmo Parallel Rank Order (PRO) \cite {tiwari2011online}.\relax }{figure.caption.38}{}}
\@writefile{toc}{\contentsline {subsection}{\numberline {3.2.3}M\IeC {\'e}todo de Otimiza\IeC {\c c}\IeC {\~a}o Bayesiana (Spearmint)}{40}{subsection.3.2.3}}
\newlabel{alg:spearmint}{{3.2.3}{40}{Método de Otimização Bayesiana (Spearmint)}{subsection.3.2.3}{}}
\@writefile{brf}{\backcite{snoek2012practical}{{40}{3.2.3}{subsection.3.2.3}}}
\citation{snoek2013bayesian}
\citation{snoek2013bayesian}
\@writefile{brf}{\backcite{snoek2013bayesian}{{41}{3.2.3}{subsection.3.2.3}}}
\@writefile{toc}{\contentsline {subsection}{\numberline {3.2.4}Algoritmo Gen\IeC {\'e}tico Implementado (GA)}{41}{subsection.3.2.4}}
\newlabel{ga:dev}{{3.2.4}{41}{Algoritmo Genético Implementado (GA)}{subsection.3.2.4}{}}
\@writefile{lof}{\contentsline {figure}{\numberline {3.6}{\ignorespaces Fluxograma do algoritmo gen\IeC {\'e}tico desenvolvido.}}{42}{figure.caption.39}}
\newlabel{fig:ga-desenvolvido}{{3.6}{42}{Fluxograma do algoritmo genético desenvolvido}{figure.caption.39}{}}
\@writefile{toc}{\contentsline {paragraph}{Inicializa\IeC {\c c}\IeC {\~a}o da Popula\IeC {\c c}\IeC {\~a}o}{42}{section*.40}}
\@writefile{lof}{\contentsline {figure}{\numberline {3.7}{\ignorespaces Codifica\IeC {\c c}\IeC {\~a}o de um indiv\IeC {\'\i }duo do GA para a aplica\IeC {\c c}\IeC {\~a}o baseada em Opera\IeC {\c c}\IeC {\~o}es Morfol\IeC {\'o}gicas.}}{42}{figure.caption.41}}
\newlabel{fig:ga-morph}{{3.7}{42}{Codificação de um indivíduo do GA para a aplicação baseada em Operações Morfológicas}{figure.caption.41}{}}
\@writefile{lof}{\contentsline {figure}{\numberline {3.8}{\ignorespaces Codifica\IeC {\c c}\IeC {\~a}o de um indiv\IeC {\'\i }duo do GA para a aplica\IeC {\c c}\IeC {\~a}o baseada em \emph  {Level Set Operations}.}}{42}{figure.caption.43}}
\newlabel{fig:ga-levelset}{{3.8}{42}{Codificação de um indivíduo do GA para a aplicação baseada em \emph {Level Set Operations}}{figure.caption.43}{}}
\@writefile{lot}{\contentsline {table}{\numberline {3.2}{\ignorespaces Lista dos 15 par\IeC {\^a}metros do est\IeC {\'a}gio de segmenta\IeC {\c c}\IeC {\~a}o da aplica\IeC {\c c}\IeC {\~a}o baseada em Opera\IeC {\c c}\IeC {\~o}es Morfol\IeC {\'o}gicas. O espa\IeC {\c c}o de busca desse est\IeC {\'a}gio \IeC {\'e} de aproximadamente 21,4 trilh\IeC {\~o}es de pontos.\relax }}{43}{table.caption.42}}
\newlabel{tab:parameters-morphologic-2}{{3.2}{43}{Lista dos 15 parâmetros do estágio de segmentação da aplicação baseada em Operações Morfológicas. O espaço de busca desse estágio é de aproximadamente 21,4 trilhões de pontos.\relax }{table.caption.42}{}}
\@writefile{lot}{\contentsline {table}{\numberline {3.3}{\ignorespaces Lista dos 7 par\IeC {\^a}metros do est\IeC {\'a}gio de segmenta\IeC {\c c}\IeC {\~a}o da segunda aplica\IeC {\c c}\IeC {\~a}o, baseada em \emph  {Level Set}. O espa\IeC {\c c}o de busca desse est\IeC {\'a}gio \IeC {\'e} de aproximadamente 2,8 bilh\IeC {\~o}es de pontos.\relax }}{43}{table.caption.44}}
\newlabel{tab:parameters-level-set-2}{{3.3}{43}{Lista dos 7 parâmetros do estágio de segmentação da segunda aplicação, baseada em \emph {Level Set}. O espaço de busca desse estágio é de aproximadamente 2,8 bilhões de pontos.\relax }{table.caption.44}{}}
\@writefile{toc}{\contentsline {paragraph}{Cruzamento}{43}{section*.45}}
\citation{linden2008algoritmos}
\citation{linden2008algoritmos}
\citation{skiena1998algorithm}
\citation{skiena1998algorithm}
\citation{teodoro2017algorithm}
\citation{teodoro2017algorithm}
\@writefile{toc}{\contentsline {paragraph}{Muta\IeC {\c c}\IeC {\~a}o}{44}{section*.46}}
\@writefile{toc}{\contentsline {paragraph}{Avalia\IeC {\c c}\IeC {\~a}o}{44}{section*.47}}
\@writefile{toc}{\contentsline {paragraph}{Substitui\IeC {\c c}\IeC {\~a}o}{44}{section*.48}}
\@writefile{brf}{\backcite{linden2008algoritmos}{{44}{3.2.4}{section*.48}}}
\@writefile{toc}{\contentsline {paragraph}{Propaga\IeC {\c c}\IeC {\~a}o de Membros da Elite (Est\IeC {\'a}gio Opcional)}{44}{section*.49}}
\@writefile{brf}{\backcite{skiena1998algorithm}{{44}{3.2.4}{section*.49}}}
\citation{linden2008algoritmos}
\citation{linden2008algoritmos}
\@writefile{brf}{\backcite{teodoro2017algorithm}{{45}{3.2.4}{section*.49}}}
\@writefile{lof}{\contentsline {figure}{\numberline {3.9}{\ignorespaces Est\IeC {\'a}gio de Propaga\IeC {\c c}\IeC {\~a}o dos Membros da Elite.}}{45}{figure.caption.50}}
\newlabel{fig:ga-progacao}{{3.9}{45}{Estágio de Propagação dos Membros da Elite}{figure.caption.50}{}}
\@writefile{toc}{\contentsline {paragraph}{Sele\IeC {\c c}\IeC {\~a}o dos Reprodutores}{45}{section*.51}}
\citation{linden2008algoritmos}
\citation{linden2008algoritmos}
\citation{behzad2013taming,teodoro2011aarts}
\citation{behzad2013taming}
\citation{teodoro2011aarts}
\citation{teng2003genetic}
\citation{teng2003genetic}
\citation{c2016mase}
\citation{c2016mase}
\@writefile{toc}{\contentsline {paragraph}{Paralelismo}{46}{section*.52}}
\@writefile{brf}{\backcite{linden2008algoritmos}{{46}{3.2.4}{section*.52}}}
\@writefile{brf}{\backcite{linden2008algoritmos}{{46}{3.2.4}{section*.52}}}
\@writefile{brf}{\backcite{behzad2013taming}{{46}{3.2.4}{section*.52}}}
\@writefile{brf}{\backcite{teodoro2011aarts}{{46}{3.2.4}{section*.52}}}
\@writefile{brf}{\backcite{teng2003genetic}{{46}{3.2.4}{section*.52}}}
\@writefile{brf}{\backcite{c2016mase}{{46}{3.2.4}{section*.52}}}
\@writefile{toc}{\contentsline {section}{\numberline {3.3}An\IeC {\'a}lises Comparativas}{46}{section.3.3}}
\newlabel{sec:comparative-analysis}{{3.3}{46}{Análises Comparativas}{section.3.3}{}}
\citation{aji2012towards}
\citation{aji2012towards}
\citation{aji2012towards}
\citation{aji2012towards}
\citation{aji2013hadoop,aji2014haggis}
\citation{aji2014haggis}
\citation{aji2013hadoop}
\citation{beckmann1990r}
\citation{beckmann1990r}
\@writefile{toc}{\contentsline {subsection}{\numberline {3.3.1}Consultas Espaciais (\emph  {Spatial Queries})}{47}{subsection.3.3.1}}
\newlabel{sec:spatial-queries}{{3.3.1}{47}{Consultas Espaciais (\emph {Spatial Queries})}{subsection.3.3.1}{}}
\@writefile{lot}{\contentsline {table}{\numberline {3.4}{\ignorespaces Tipos de consultas espaciais comuns suportadas pelos bancos de dados espaciais.}}{47}{table.caption.53}}
\@writefile{brf}{\backcite{aji2012towards}{{47}{3.4}{table.caption.53}}}
\newlabel{table-queries}{{3.4}{47}{Tipos de consultas espaciais comuns suportadas pelos bancos de dados espaciais}{table.caption.53}{}}
\newlabel{sec:hadoop-gis}{{3.3.1}{47}{Biblioteca de Análise Espacial: Hadoop-GIS}{section*.54}{}}
\@writefile{toc}{\contentsline {paragraph}{Biblioteca de An\IeC {\'a}lise Espacial: Hadoop-GIS}{47}{section*.54}}
\@writefile{brf}{\backcite{aji2014haggis}{{47}{3.3.1}{section*.54}}}
\@writefile{brf}{\backcite{aji2013hadoop}{{47}{3.3.1}{section*.54}}}
\citation{aji2013hadoop}
\citation{aji2013hadoop}
\citation{aji2013hadoop}
\citation{aji2013hadoop}
\@writefile{brf}{\backcite{beckmann1990r}{{48}{3.3.1}{section*.54}}}
\newlabel{fig:poly-area}{{3.10a}{48}{A consulta espacial \textit {Área} mede a área de um determinado polígono. \relax }{figure.caption.55}{}}
\newlabel{sub@fig:poly-area}{{a}{48}{A consulta espacial \textit {Área} mede a área de um determinado polígono. \relax }{figure.caption.55}{}}
\newlabel{fig:poly-intersect}{{3.10b}{48}{A consulta espacial \textit {intersecção} mede a área da intersecção entre duas geometrias.\relax }{figure.caption.55}{}}
\newlabel{sub@fig:poly-intersect}{{b}{48}{A consulta espacial \textit {intersecção} mede a área da intersecção entre duas geometrias.\relax }{figure.caption.55}{}}
\newlabel{fig:poly-dist}{{3.10c}{48}{A consulta espacial \textit {Distância} mede a distância entre dois polígonos.\relax }{figure.caption.55}{}}
\newlabel{sub@fig:poly-dist}{{c}{48}{A consulta espacial \textit {Distância} mede a distância entre dois polígonos.\relax }{figure.caption.55}{}}
\newlabel{fig:poly-contains}{{3.10d}{48}{A consulta espacial \textit {Contém} retorna verdadeiro caso todos os vértices de um polígono convexo estejam dentro de outro polígono convexo. Caso contrário, retorna falso.\relax }{figure.caption.55}{}}
\newlabel{sub@fig:poly-contains}{{d}{48}{A consulta espacial \textit {Contém} retorna verdadeiro caso todos os vértices de um polígono convexo estejam dentro de outro polígono convexo. Caso contrário, retorna falso.\relax }{figure.caption.55}{}}
\newlabel{fig:poly-centroid}{{3.10e}{48}{A consulta espacial \textit {Baricentro} calcula o baricentro de uma geometria.\relax }{figure.caption.55}{}}
\newlabel{sub@fig:poly-centroid}{{e}{48}{A consulta espacial \textit {Baricentro} calcula o baricentro de uma geometria.\relax }{figure.caption.55}{}}
\@writefile{lof}{\contentsline {figure}{\numberline {3.10}{\ignorespaces Este conjunto de imagens ilustra o funcionamento das consultas espaciais da Tabela \ref  {table-queries} \cite  {aji2013hadoop}.\relax }}{48}{figure.caption.55}}
\@writefile{brf}{\backcite{aji2013hadoop}{{48}{3.10}{figure.caption.55}}}
\newlabel{fig:spatial-queries}{{3.10}{48}{Este conjunto de imagens ilustra o funcionamento das consultas espaciais da Tabela \ref {table-queries} \cite {aji2013hadoop}.\relax }{figure.caption.55}{}}
\citation{sorensen1948method}
\citation{sorensen1948method}
\citation{jaccard1901etude}
\citation{jaccard1901etude}
\@writefile{brf}{\backcite{sorensen1948method}{{49}{3.3.1}{figure.caption.55}}}
\@writefile{brf}{\backcite{jaccard1901etude}{{49}{3.3.1}{figure.caption.55}}}
\@writefile{lof}{\contentsline {figure}{\numberline {3.11}{\ignorespaces Fluxo de trabalho do processo de computa\IeC {\c c}\IeC {\~a}o das m\IeC {\'e}tricas e \emph  {queries} suportadas.}}{50}{figure.caption.56}}
\newlabel{fig:comparative-analysis}{{3.11}{50}{Fluxo de trabalho do processo de computação das métricas e \emph {queries} suportadas}{figure.caption.56}{}}
\citation{dice1945measures,jaccard1901etude}
\citation{dice1945measures}
\citation{jaccard1901etude}
\citation{sorensen1948method}
\citation{sorensen1948method}
\citation{dice1945measures}
\citation{dice1945measures}
\@writefile{toc}{\contentsline {subsection}{\numberline {3.3.2}M\IeC {\'e}tricas Implementadas}{51}{subsection.3.3.2}}
\newlabel{sec:metricas}{{3.3.2}{51}{Métricas Implementadas}{subsection.3.3.2}{}}
\@writefile{brf}{\backcite{dice1945measures}{{51}{3.3.2}{subsection.3.3.2}}}
\@writefile{brf}{\backcite{jaccard1901etude}{{51}{3.3.2}{subsection.3.3.2}}}
\newlabel{metric:diff-pixels}{{3.3.2}{51}{Métrica: \emph {Diff Pixels}}{section*.57}{}}
\@writefile{toc}{\contentsline {paragraph}{M\IeC {\'e}trica: \emph  {Diff Pixels}}{51}{section*.57}}
\@writefile{toc}{\contentsline {paragraph}{M\IeC {\'e}trica: \emph  {General Dice Coefficient}}{51}{section*.58}}
\@writefile{brf}{\backcite{sorensen1948method}{{51}{3.3.2}{section*.58}}}
\newlabel{dicegen}{{3.1}{51}{Métrica: \emph {General Dice Coefficient}}{equation.3.3.1}{}}
\@writefile{toc}{\contentsline {paragraph}{M\IeC {\'e}trica: \emph  {Individual Dice Coefficient}}{51}{section*.59}}
\@writefile{brf}{\backcite{dice1945measures}{{51}{3.3.2}{section*.59}}}
\newlabel{diceind}{{3.2}{51}{Métrica: \emph {Individual Dice Coefficient}}{equation.3.3.2}{}}
\citation{images15}
\citation{images15}
\citation{images15}
\citation{images15}
\@writefile{toc}{\contentsline {paragraph}{M\IeC {\'e}trica: \emph  {Average Dice Coefficient}}{52}{section*.60}}
\newlabel{fig:dice-ref}{{3.12a}{52}{Exemplo de imagem de tecido anotada por um patologista.\relax }{figure.caption.61}{}}
\newlabel{sub@fig:dice-ref}{{a}{52}{Exemplo de imagem de tecido anotada por um patologista.\relax }{figure.caption.61}{}}
\newlabel{fig:dice-junto}{{3.12b}{52}{Exemplo segmentação correta. Duas células identificadas.\relax }{figure.caption.61}{}}
\newlabel{sub@fig:dice-junto}{{b}{52}{Exemplo segmentação correta. Duas células identificadas.\relax }{figure.caption.61}{}}
\newlabel{fig:dice-separado}{{3.12c}{52}{Exemplo de segmentação incorreta. Cinco células identificadas, sendo que deveriam ser identificadas apenas duas.\relax }{figure.caption.61}{}}
\newlabel{sub@fig:dice-separado}{{c}{52}{Exemplo de segmentação incorreta. Cinco células identificadas, sendo que deveriam ser identificadas apenas duas.\relax }{figure.caption.61}{}}
\@writefile{lof}{\contentsline {figure}{\numberline {3.12}{\ignorespaces Compara\IeC {\c c}\IeC {\~a}o de uma m\IeC {\'a}scara com uma c\IeC {\'e}lula segmentada do tamanho correto com uma m\IeC {\'a}scara que possui duas m\IeC {\'e}tricas com metade do tamanho e justapostas. \cite  {images15}.\relax }}{52}{figure.caption.61}}
\@writefile{brf}{\backcite{images15}{{52}{3.12}{figure.caption.61}}}
\newlabel{fig:dice-comp}{{3.12}{52}{Comparação de uma máscara com uma célula segmentada do tamanho correto com uma máscara que possui duas métricas com metade do tamanho e justapostas. \cite {images15}.\relax }{figure.caption.61}{}}
\citation{teodoro2017algorithm}
\citation{teodoro2017algorithm}
\citation{jaccard1901etude}
\citation{jaccard1901etude}
\newlabel{diceavg}{{3.3}{53}{Métrica: \emph {Average Dice Coefficient}}{equation.3.3.3}{}}
\@writefile{toc}{\contentsline {paragraph}{M\IeC {\'e}trica: \emph  {Intersection Overlap Area}}{53}{section*.62}}
\newlabel{ioa}{{3.4}{53}{Métrica: \emph {Intersection Overlap Area}}{equation.3.3.4}{}}
\@writefile{brf}{\backcite{teodoro2017algorithm}{{53}{3.3.2}{equation.3.3.4}}}
\@writefile{toc}{\contentsline {paragraph}{M\IeC {\'e}trica: \emph  {Jaccard Index}}{53}{section*.63}}
\@writefile{brf}{\backcite{jaccard1901etude}{{53}{3.3.2}{section*.63}}}
\newlabel{jaccardeq}{{3.5}{53}{Métrica: \emph {Jaccard Index}}{equation.3.3.5}{}}
\@writefile{lof}{\contentsline {figure}{\numberline {3.13}{\ignorespaces Uma consulta SQL-like equivalente \IeC {\`a} m\IeC {\'e}trica \emph  {Jaccard Index} utilizada em banco de dados espaciais.\relax }}{54}{figure.caption.64}}
\newlabel{fig:sql-query}{{3.13}{54}{Uma consulta SQL-like equivalente à métrica \emph {Jaccard Index} utilizada em banco de dados espaciais.\relax }{figure.caption.64}{}}
\@writefile{toc}{\contentsline {section}{\numberline {3.4}Ajuste Multiobjetivo}{54}{section.3.4}}
\newlabel{sec:ajuste-multi}{{3.4}{54}{Ajuste Multiobjetivo}{section.3.4}{}}
\newlabel{eq:time}{{3.6}{54}{Ajuste Multiobjetivo}{equation.3.4.6}{}}
\newlabel{eq:func}{{3.7}{55}{Ajuste Multiobjetivo}{equation.3.4.7}{}}
\newlabel{fig:exec-30-nscale}{{3.14a}{56}{Representação gráfica da variação do tempo de execução de 30 execuções aleatórias da aplicação baseada em Operações Morfológicas (dados da Tabela \ref {param-variation-nscale}).\relax }{figure.caption.65}{}}
\newlabel{sub@fig:exec-30-nscale}{{a}{56}{Representação gráfica da variação do tempo de execução de 30 execuções aleatórias da aplicação baseada em Operações Morfológicas (dados da Tabela \ref {param-variation-nscale}).\relax }{figure.caption.65}{}}
\newlabel{fig:exec-30-yi-mean}{{3.14b}{56}{Representação gráfica da variação do tempo de execução de 30 execuções aleatórias da aplicação baseada em Level Set com Mean Shift (dados da Tabela \ref {param-variation-yi-meanshift}).\\\relax }{figure.caption.65}{}}
\newlabel{sub@fig:exec-30-yi-mean}{{b}{56}{Representação gráfica da variação do tempo de execução de 30 execuções aleatórias da aplicação baseada em Level Set com Mean Shift (dados da Tabela \ref {param-variation-yi-meanshift}).\\\relax }{figure.caption.65}{}}
\newlabel{fig:exec-30-yi-water}{{3.14c}{56}{Representação gráfica da variação do tempo de execução de 30 execuções aleatórias da aplicação baseada em Level Set com Watershed (dados da Tabela \ref {param-variation-yi-watershed}). \relax }{figure.caption.65}{}}
\newlabel{sub@fig:exec-30-yi-water}{{c}{56}{Representação gráfica da variação do tempo de execução de 30 execuções aleatórias da aplicação baseada em Level Set com Watershed (dados da Tabela \ref {param-variation-yi-watershed}). \relax }{figure.caption.65}{}}
\@writefile{lof}{\contentsline {figure}{\numberline {3.14}{\ignorespaces Representa\IeC {\c c}\IeC {\~o}es gr\IeC {\'a}ficas de 30 execu\IeC {\c c}\IeC {\~o}es das aplica\IeC {\c c}\IeC {\~o}es caso-de-uso, escolhendo-se os par\IeC {\^a}metros de maneira aleat\IeC {\'o}ria, para duas imagens de 1K$\times $1K (imagens 1 e 9 do conjunto de testes).\relax }}{56}{figure.caption.65}}
\newlabel{fig:exec-30}{{3.14}{56}{Representações gráficas de 30 execuções das aplicações caso-de-uso, escolhendo-se os parâmetros de maneira aleatória, para duas imagens de 1K$\times $1K (imagens 1 e 9 do conjunto de testes).\relax }{figure.caption.65}{}}
\@writefile{lot}{\contentsline {table}{\numberline {3.5}{\ignorespaces Exemplo do impacto que a varia\IeC {\c c}\IeC {\~a}o dos par\IeC {\^a}metros das aplica\IeC {\c c}\IeC {\~o}es de segmenta\IeC {\c c}\IeC {\~a}o causam na precis\IeC {\~a}o do resultado e no tempo de execu\IeC {\c c}\IeC {\~a}o da aplica\IeC {\c c}\IeC {\~a}o baseada em Opera\IeC {\c c}\IeC {\~o}es Morfol\IeC {\'o}gicas. Ao todo foram 30 execu\IeC {\c c}\IeC {\~o}es, escolhendo-se os par\IeC {\^a}metros de maneira aleat\IeC {\'o}ria, para duas imagens de 1K$\times $1K (imagens 1 e 9 do conjunto de testes).\relax }}{57}{table.caption.66}}
\newlabel{param-variation-nscale}{{3.5}{57}{Exemplo do impacto que a variação dos parâmetros das aplicações de segmentação causam na precisão do resultado e no tempo de execução da aplicação baseada em Operações Morfológicas. Ao todo foram 30 execuções, escolhendo-se os parâmetros de maneira aleatória, para duas imagens de 1K$\times $1K (imagens 1 e 9 do conjunto de testes).\relax }{table.caption.66}{}}
\@writefile{lot}{\contentsline {table}{\numberline {3.6}{\ignorespaces Exemplo do impacto que a varia\IeC {\c c}\IeC {\~a}o dos par\IeC {\^a}metros das aplica\IeC {\c c}\IeC {\~o}es de segmenta\IeC {\c c}\IeC {\~a}o causam na precis\IeC {\~a}o do resultado e no tempo de execu\IeC {\c c}\IeC {\~a}o da aplica\IeC {\c c}\IeC {\~a}o baseada em \emph  {Level Set com Mean Shift}. Ao todo foram 30 execu\IeC {\c c}\IeC {\~o}es, escolhendo-se os par\IeC {\^a}metros de maneira aleat\IeC {\'o}ria, para duas imagens de 1K$\times $1K (imagens 1 e 9 do conjunto de testes).\relax }}{58}{table.caption.67}}
\newlabel{param-variation-yi-meanshift}{{3.6}{58}{Exemplo do impacto que a variação dos parâmetros das aplicações de segmentação causam na precisão do resultado e no tempo de execução da aplicação baseada em \emph {Level Set com Mean Shift}. Ao todo foram 30 execuções, escolhendo-se os parâmetros de maneira aleatória, para duas imagens de 1K$\times $1K (imagens 1 e 9 do conjunto de testes).\relax }{table.caption.67}{}}
\@writefile{lot}{\contentsline {table}{\numberline {3.7}{\ignorespaces Exemplo do impacto que a varia\IeC {\c c}\IeC {\~a}o dos par\IeC {\^a}metros das aplica\IeC {\c c}\IeC {\~o}es de segmenta\IeC {\c c}\IeC {\~a}o causam na precis\IeC {\~a}o do resultado e no tempo de execu\IeC {\c c}\IeC {\~a}o da aplica\IeC {\c c}\IeC {\~a}o baseada em \emph  {Level Set com Watershed}. Ao todo foram 30 execu\IeC {\c c}\IeC {\~o}es, escolhendo-se os par\IeC {\^a}metros de maneira aleat\IeC {\'o}ria, para duas imagens de 1K$\times $1K (imagens 1 e 9 do conjunto de testes). \relax }}{59}{table.caption.68}}
\newlabel{param-variation-yi-watershed}{{3.7}{59}{Exemplo do impacto que a variação dos parâmetros das aplicações de segmentação causam na precisão do resultado e no tempo de execução da aplicação baseada em \emph {Level Set com Watershed}. Ao todo foram 30 execuções, escolhendo-se os parâmetros de maneira aleatória, para duas imagens de 1K$\times $1K (imagens 1 e 9 do conjunto de testes). \relax }{table.caption.68}{}}
\citation{kong2013machine}
\citation{kong2013machine}
\@writefile{toc}{\contentsline {chapter}{\numberline {4}Avalia\IeC {\c c}\IeC {\~a}o Experimental}{60}{chapter.4}}
\@writefile{lof}{\addvspace {10\p@ }}
\@writefile{lot}{\addvspace {10\p@ }}
\@writefile{loa}{\addvspace {10\p@ }}
\newlabel{chap:experiments}{{4}{60}{Avaliação Experimental}{chapter.4}{}}
\@writefile{brf}{\backcite{kong2013machine}{{60}{4}{chapter.4}}}
\@writefile{toc}{\contentsline {section}{\numberline {4.1}Configura\IeC {\c c}\IeC {\~a}o e Par\IeC {\^a}metros do GA}{61}{section.4.1}}
\newlabel{exp:ga-config}{{4.1}{61}{Configuração e Parâmetros do GA}{section.4.1}{}}
\@writefile{toc}{\contentsline {paragraph}{Tamanho da Popula\IeC {\c c}\IeC {\~a}o e Quantidade de Gera\IeC {\c c}\IeC {\~o}es}{62}{section*.69}}
\@writefile{lof}{\contentsline {figure}{\numberline {4.1}{\ignorespaces Vis\IeC {\~a}o geral da fun\IeC {\c c}\IeC {\~a}o \emph  {fitness} (medida pela m\IeC {\'e}trica Average Dice) da popula\IeC {\c c}\IeC {\~a}o de indiv\IeC {\'\i }duos do GA.}}{62}{figure.caption.70}}
\newlabel{fig:testeGaEvolution}{{4.1}{62}{Visão geral da função \emph {fitness} (medida pela métrica Average Dice) da população de indivíduos do GA}{figure.caption.70}{}}
\@writefile{toc}{\contentsline {paragraph}{Taxa de Muta\IeC {\c c}\IeC {\~a}o}{62}{section*.71}}
\@writefile{toc}{\contentsline {paragraph}{Taxa de \emph  {Crossover}}{62}{section*.73}}
\@writefile{lof}{\contentsline {figure}{\numberline {4.2}{\ignorespaces Teste de Varia\IeC {\c c}\IeC {\~a}o da Taxa de Muta\IeC {\c c}\IeC {\~a}o.}}{63}{figure.caption.72}}
\newlabel{fig:testeMutacao}{{4.2}{63}{Teste de Variação da Taxa de Mutação}{figure.caption.72}{}}
\@writefile{lof}{\contentsline {figure}{\numberline {4.3}{\ignorespaces Teste de Varia\IeC {\c c}\IeC {\~a}o da Taxa de \emph  {Crossover}.}}{63}{figure.caption.74}}
\newlabel{fig:testeCrossover}{{4.3}{63}{Teste de Variação da Taxa de \emph {Crossover}}{figure.caption.74}{}}
\@writefile{toc}{\contentsline {paragraph}{Taxa de Elitismo}{63}{section*.75}}
\@writefile{lof}{\contentsline {figure}{\numberline {4.4}{\ignorespaces Teste de propaga\IeC {\c c}\IeC {\~a}o dos melhores indiv\IeC {\'\i }duos.}}{64}{figure.caption.76}}
\newlabel{fig:testpropag}{{4.4}{64}{Teste de propagação dos melhores indivíduos}{figure.caption.76}{}}
\@writefile{toc}{\contentsline {section}{\numberline {4.2}Otimiza\IeC {\c c}\IeC {\~a}o de Cada Imagem Individualmente}{65}{section.4.2}}
\newlabel{exp:tuning-single-image}{{4.2}{65}{Otimização de Cada Imagem Individualmente}{section.4.2}{}}
\@writefile{toc}{\contentsline {subsection}{\numberline {4.2.1}Otimiza\IeC {\c c}\IeC {\~a}o Mono-Objetivo}{65}{subsection.4.2.1}}
\@writefile{lot}{\contentsline {table}{\numberline {4.1}{\ignorespaces Compara\IeC {\c c}\IeC {\~a}o dos resultados utilizando-se os par\IeC {\^a}metros padr\IeC {\~a}o das aplica\IeC {\c c}\IeC {\~o}es de segmenta\IeC {\c c}\IeC {\~a}o e os selecionados pelos algoritmos de otimiza\IeC {\c c}\IeC {\~a}o GA, NM, PRO e Spearmint. Os experimentos foram conduzidos usando a m\IeC {\'e}trica \emph  {Average Dice} para ambos os fluxos de trabalho de segmenta\IeC {\c c}\IeC {\~a}o. Foi dado peso 1 para a m\IeC {\'e}trica e peso 0 para o tempo de segmenta\IeC {\c c}\IeC {\~a}o (ajuste de objetivo \IeC {\'u}nico)\relax }}{66}{table.caption.77}}
\newlabel{tab:tuning-m1-t0}{{4.1a}{66}{Resultados da otimização mono-objetivo para o fluxo de trabalho baseado em Operações Morfológicas.\relax }{table.caption.77}{}}
\newlabel{sub@tab:tuning-m1-t0}{{a}{66}{Resultados da otimização mono-objetivo para o fluxo de trabalho baseado em Operações Morfológicas.\relax }{table.caption.77}{}}
\newlabel{tab:tuning-m1-t0-levelset}{{4.1b}{66}{Resultados para o fluxo de trabalho baseado em \emph {Level Set}.\relax }{table.caption.77}{}}
\newlabel{sub@tab:tuning-m1-t0-levelset}{{b}{66}{Resultados para o fluxo de trabalho baseado em \emph {Level Set}.\relax }{table.caption.77}{}}
\newlabel{tab:tuning-single-image-m1-t0}{{4.1}{66}{Comparação dos resultados utilizando-se os parâmetros padrão das aplicações de segmentação e os selecionados pelos algoritmos de otimização GA, NM, PRO e Spearmint. Os experimentos foram conduzidos usando a métrica \emph {Average Dice} para ambos os fluxos de trabalho de segmentação. Foi dado peso 1 para a métrica e peso 0 para o tempo de segmentação (ajuste de objetivo único)\relax }{table.caption.77}{}}
\@writefile{toc}{\contentsline {subsection}{\numberline {4.2.2}Otimiza\IeC {\c c}\IeC {\~a}o Multiobjetivo}{67}{subsection.4.2.2}}
\@writefile{lot}{\contentsline {table}{\numberline {4.2}{\ignorespaces Compara\IeC {\c c}\IeC {\~a}o dos resultados das segmenta\IeC {\c c}\IeC {\~a}o utilizando-se os par\IeC {\^a}metros padr\IeC {\~a}o das aplica\IeC {\c c}\IeC {\~o}es exemplo com aqueles selecionados pelos algoritmos de otimiza\IeC {\c c}\IeC {\~a}o (GA, NM, PRO e Spearmint). Os experimentos foram conduzidos usando a m\IeC {\'e}trica \emph  {Average Dice} para ambos os fluxos de trabalho de segmenta\IeC {\c c}\IeC {\~a}o. Os valores apresentados correspondem aos valores m\IeC {\'e}dios dos resultados das 15 imagens testadas.\relax }}{67}{table.caption.78}}
\newlabel{tab:tuning-single-image}{{4.2}{67}{Comparação dos resultados das segmentação utilizando-se os parâmetros padrão das aplicações exemplo com aqueles selecionados pelos algoritmos de otimização (GA, NM, PRO e Spearmint). Os experimentos foram conduzidos usando a métrica \emph {Average Dice} para ambos os fluxos de trabalho de segmentação. Os valores apresentados correspondem aos valores médios dos resultados das 15 imagens testadas.\relax }{table.caption.78}{}}
\@writefile{toc}{\contentsline {section}{\numberline {4.3}Valida\IeC {\c c}\IeC {\~a}o Cruzada}{69}{section.4.3}}
\newlabel{exp:cross-validation}{{4.3}{69}{Validação Cruzada}{section.4.3}{}}
\@writefile{lot}{\contentsline {table}{\numberline {4.3}{\ignorespaces Resultados m\IeC {\'e}dio das 10 execu\IeC {\c c}\IeC {\~o}es da valida\IeC {\c c}\IeC {\~a}o cruzada de subamostragem aleat\IeC {\'o}ria. Os valores apresentados correspondem \IeC {\`a} m\IeC {\'e}dia da soma das qualidades individuais das imagens presentes em cada conjunto de testes das 10 execu\IeC {\c c}\IeC {\~o}es da valida\IeC {\c c}\IeC {\~a}o cruzada. \relax }}{70}{table.caption.79}}
\newlabel{tab:tuning-crossvalidation}{{4.3}{70}{Resultados médio das 10 execuções da validação cruzada de subamostragem aleatória. Os valores apresentados correspondem à média da soma das qualidades individuais das imagens presentes em cada conjunto de testes das 10 execuções da validação cruzada. \relax }{table.caption.79}{}}
\@writefile{toc}{\contentsline {section}{\numberline {4.4}Valida\IeC {\c c}\IeC {\~a}o Cruzada em Dois Grupos}{70}{section.4.4}}
\newlabel{exp:cross-validation-2}{{4.4}{70}{Validação Cruzada em Dois Grupos}{section.4.4}{}}
\newlabel{fig:wsi1-img}{{4.5a}{72}{Exemplo de imagem de tecido humano com células mais alongadas atribuída ao primeiro grupo.\relax }{figure.caption.80}{}}
\newlabel{sub@fig:wsi1-img}{{a}{72}{Exemplo de imagem de tecido humano com células mais alongadas atribuída ao primeiro grupo.\relax }{figure.caption.80}{}}
\newlabel{fig:wsi1-pato}{{4.5b}{72}{Máscara gerada pelas anotações manuais do patologista especialista na área em relação à imagem (a). As partes em branco correspondem às células identificadas.\\\relax }{figure.caption.80}{}}
\newlabel{sub@fig:wsi1-pato}{{b}{72}{Máscara gerada pelas anotações manuais do patologista especialista na área em relação à imagem (a). As partes em branco correspondem às células identificadas.\\\relax }{figure.caption.80}{}}
\newlabel{fig:wsi10-img}{{4.5c}{72}{Exemplo de imagem de tecido humano com células mais arrendondadas atribuída ao segundo grupo. \relax }{figure.caption.80}{}}
\newlabel{sub@fig:wsi10-img}{{c}{72}{Exemplo de imagem de tecido humano com células mais arrendondadas atribuída ao segundo grupo. \relax }{figure.caption.80}{}}
\newlabel{fig:wsi10-pato}{{4.5d}{72}{Máscara anotada manualmente pelo patologista especialista.\relax }{figure.caption.80}{}}
\newlabel{sub@fig:wsi10-pato}{{d}{72}{Máscara anotada manualmente pelo patologista especialista.\relax }{figure.caption.80}{}}
\@writefile{lof}{\contentsline {figure}{\numberline {4.5}{\ignorespaces Exemplos de duas imagens de tecidos humanos com c\IeC {\'e}lulas de caracter\IeC {\'\i }sticas e formas diferentes que foram classificadas em grupos distintos. As m\IeC {\'a}scaras anotadas pelos patologistas s\IeC {\~a}o utilizadas como refer\IeC {\^e}ncia pelo algoritmo de otimiza\IeC {\c c}\IeC {\~a}o para avaliar a qualidade das m\IeC {\'a}scaras produzidas pela aplica\IeC {\c c}\IeC {\~a}o.\relax }}{72}{figure.caption.80}}
\newlabel{fig:two-crossvalidation-groups}{{4.5}{72}{Exemplos de duas imagens de tecidos humanos com células de características e formas diferentes que foram classificadas em grupos distintos. As máscaras anotadas pelos patologistas são utilizadas como referência pelo algoritmo de otimização para avaliar a qualidade das máscaras produzidas pela aplicação.\relax }{figure.caption.80}{}}
\@writefile{lot}{\contentsline {table}{\numberline {4.4}{\ignorespaces Resultados m\IeC {\'e}dio das 10 execu\IeC {\c c}\IeC {\~o}es da valida\IeC {\c c}\IeC {\~a}o cruzada de subamostragem aleat\IeC {\'o}ria para o caso de uso baseado em \emph  {Level Set}. Os valores apresentados correspondem \IeC {\`a} m\IeC {\'e}dia da soma das qualidades individuais das imagens presentes em cada conjunto de testes das 10 execu\IeC {\c c}\IeC {\~o}es da valida\IeC {\c c}\IeC {\~a}o cruzada de cada grupo de imagens (4+8 imagens em cada conjunto de teste). \relax }}{73}{table.caption.81}}
\newlabel{tab:tuning-crossvalidation-2sets}{{4.4}{73}{Resultados médio das 10 execuções da validação cruzada de subamostragem aleatória para o caso de uso baseado em \emph {Level Set}. Os valores apresentados correspondem à média da soma das qualidades individuais das imagens presentes em cada conjunto de testes das 10 execuções da validação cruzada de cada grupo de imagens (4+8 imagens em cada conjunto de teste). \relax }{table.caption.81}{}}
\@writefile{lot}{\contentsline {table}{\numberline {4.5}{\ignorespaces Exemplo de combina\IeC {\c c}\IeC {\~o}es de par\IeC {\^a}metros padr\IeC {\~a}o e otimizada, obtida nesses experimentos, para a aplica\IeC {\c c}\IeC {\~a}o baseada em \emph  {Level-Set}. \relax }}{74}{table.caption.82}}
\newlabel{tab:param-example}{{4.5}{74}{Exemplo de combinações de parâmetros padrão e otimizada, obtida nesses experimentos, para a aplicação baseada em \emph {Level-Set}. \relax }{table.caption.82}{}}
\@writefile{toc}{\contentsline {chapter}{\numberline {5}Conclus\IeC {\~a}o}{75}{chapter.5}}
\@writefile{lof}{\addvspace {10\p@ }}
\@writefile{lot}{\addvspace {10\p@ }}
\@writefile{loa}{\addvspace {10\p@ }}
\newlabel{chap:conclusao}{{5}{75}{Conclusão}{chapter.5}{}}
\citation{Nelder01011965}
\citation{Nelder01011965}
\citation{tiwari2011online}
\citation{tiwari2011online}
\citation{snoek2012practical}
\citation{snoek2012practical}
\@writefile{brf}{\backcite{Nelder01011965}{{76}{5}{chapter.5}}}
\@writefile{brf}{\backcite{tiwari2011online}{{76}{5}{chapter.5}}}
\@writefile{brf}{\backcite{snoek2012practical}{{76}{5}{chapter.5}}}
\citation{teodoro2017algorithm}
\citation{teodoro2017algorithm}
\citation{jeffers2013intel}
\citation{jeffers2013intel}
\@writefile{brf}{\backcite{teodoro2017algorithm}{{77}{5}{chapter.5}}}
\bibstyle{plain}
\@writefile{brf}{\backcite{jeffers2013intel}{{78}{5}{chapter.5}}}
\bibdata{bibliografia}
\bibcite{aji2014haggis}{{1}{}{{}}{{}}}
\bibcite{aji2012towards}{{2}{}{{}}{{}}}
\bibcite{aji2013hadoop}{{3}{}{{}}{{}}}
\bibcite{al2010improved}{{4}{}{{}}{{}}}
\bibcite{beckmann1990r}{{5}{}{{}}{{}}}
\bibcite{behzad2013taming}{{6}{}{{}}{{}}}
\bibcite{c2016mase}{{7}{}{{}}{{}}}
\bibcite{tumorbank-brazil}{{8}{}{{}}{{}}}
\bibcite{tumorbank-accamargo}{{9}{}{{}}{{}}}
\@writefile{toc}{\contentsline {chapter}{Refer\^encias}{79}{section*.83}}
\bibcite{chang1997titan}{{10}{}{{}}{{}}}
\bibcite{coelho2009nuclear}{{11}{}{{}}{{}}}
\bibcite{coello2006evolutionary}{{12}{}{{}}{{}}}
\bibcite{coello2007evolutionary}{{13}{}{{}}{{}}}
\bibcite{cohon1975review}{{14}{}{{}}{{}}}
\bibcite{cooper2012integrated}{{15}{}{{}}{{}}}
\bibcite{intelmanycore}{{16}{}{{}}{{}}}
\bibcite{darwin1859origins}{{17}{}{{}}{{}}}
\bibcite{dawkins2006selfish}{{18}{}{{}}{{}}}
\bibcite{deb1998genetic}{{19}{}{{}}{{}}}
\bibcite{deb2008multiobjective}{{20}{}{{}}{{}}}
\bibcite{images15}{{21}{}{{}}{{}}}
\bibcite{di2010automated}{{22}{}{{}}{{}}}
\bibcite{dice1945measures}{{23}{}{{}}{{}}}
\bibcite{feitosa2006genetic}{{24}{}{{}}{{}}}
\bibcite{gao2016}{{25}{}{{}}{{}}}
\bibcite{goldberg1988genetic}{{26}{}{{}}{{}}}
\bibcite{gomes2015efficient}{{27}{}{{}}{{}}}
\bibcite{tumorbank-inca}{{28}{}{{}}{{}}}
\bibcite{granville1994simulated}{{29}{}{{}}{{}}}
\bibcite{held2013approaches}{{30}{}{{}}{{}}}
\bibcite{held2013towards}{{31}{}{{}}{{}}}
\bibcite{jaccard1901etude}{{32}{}{{}}{{}}}
\bibcite{jeffers2013intel}{{33}{}{{}}{{}}}
\bibcite{kirkpatrick1983optimization}{{34}{}{{}}{{}}}
\bibcite{klie2006models}{{35}{}{{}}{{}}}
\bibcite{kong2011silico}{{36}{}{{}}{{}}}
\bibcite{kong2013machine}{{37}{}{{}}{{}}}
\bibcite{kong2015automated}{{38}{}{{}}{{}}}
\bibcite{kong2016robust}{{39}{}{{}}{{}}}
\bibcite{kurc2005simulation}{{40}{}{{}}{{}}}
\bibcite{kurc2015scalable}{{41}{}{{}}{{}}}
\bibcite{liang2016framework}{{42}{}{{}}{{}}}
\bibcite{liang20153d}{{43}{}{{}}{{}}}
\bibcite{liang2015liver}{{44}{}{{}}{{}}}
\bibcite{linden2008algoritmos}{{45}{}{{}}{{}}}
\bibcite{apostila}{{46}{}{{}}{{}}}
\bibcite{mccall2005genetic}{{47}{}{{}}{{}}}
\bibcite{michalewicz2013genetic}{{48}{}{{}}{{}}}
\bibcite{miettinen2002scalarizing}{{49}{}{{}}{{}}}
\bibcite{mookiah2013evolutionary}{{50}{}{{}}{{}}}
\bibcite{moscato1989evolution}{{51}{}{{}}{{}}}
\bibcite{tcga}{{52}{}{{}}{{}}}
\bibcite{Nelder01011965}{{53}{}{{}}{{}}}
\bibcite{pretorius2015visual}{{54}{}{{}}{{}}}
\bibcite{rossetti2017dynamic}{{55}{}{{}}{{}}}
\bibcite{santos2016otimizaccao}{{56}{}{{}}{{}}}
\bibcite{schultz2013open}{{57}{}{{}}{{}}}
\bibcite{sedlmair2014visual}{{58}{}{{}}{{}}}
\bibcite{shock1998design}{{59}{}{{}}{{}}}
\bibcite{skiena1998algorithm}{{60}{}{{}}{{}}}
\bibcite{snoek2013bayesian}{{61}{}{{}}{{}}}
\bibcite{snoek2012practical}{{62}{}{{}}{{}}}
\bibcite{sorensen1948method}{{63}{}{{}}{{}}}
\bibcite{ctuapucs2002active}{{64}{}{{}}{{}}}
\bibcite{teng2003genetic}{{65}{}{{}}{{}}}
\bibcite{teodoro2010run}{{66}{}{{}}{{}}}
\bibcite{teodoro2015application}{{67}{}{{}}{{}}}
\bibcite{teodoro2014phi}{{68}{}{{}}{{}}}
\bibcite{Teodoro-IPDPS2012}{{69}{}{{}}{{}}}
\bibcite{teodoro2017algorithm}{{70}{}{{}}{{}}}
\bibcite{teodoro2014region}{{71}{}{{}}{{}}}
\bibcite{Teodoro-IPDPS2013}{{72}{}{{}}{{}}}
\bibcite{teodoro2013efficient}{{73}{}{{}}{{}}}
\bibcite{teodoro2009coordinating}{{74}{}{{}}{{}}}
\bibcite{teodoro2011aarts}{{75}{}{{}}{{}}}
\bibcite{tiwari2011online}{{76}{}{{}}{{}}}
\bibcite{torsney2011tuner}{{77}{}{{}}{{}}}
\bibcite{van2000multiobjective}{{78}{}{{}}{{}}}
\bibcite{veta2013automatic}{{79}{}{{}}{{}}}
\bibcite{vo2016cloud}{{80}{}{{}}{{}}}
\bibcite{wolpert1997no}{{81}{}{{}}{{}}}
\bibcite{zhang2017automated}{{82}{}{{}}{{}}}
\bibcite{zitzler1998evolutionary}{{83}{}{{}}{{}}}
\newlabel{TotPaginas}{{98}{85}{}{page.85}{}}
\providecommand\NAT@force@numbers{}\NAT@force@numbers
