<?xml version="1.0" encoding="UTF-8" standalone="no"?>
<!-- Created with Inkscape (http://www.inkscape.org/) -->

<svg
   xmlns:dc="http://purl.org/dc/elements/1.1/"
   xmlns:cc="http://creativecommons.org/ns#"
   xmlns:rdf="http://www.w3.org/1999/02/22-rdf-syntax-ns#"
   xmlns:svg="http://www.w3.org/2000/svg"
   xmlns="http://www.w3.org/2000/svg"
   xmlns:sodipodi="http://sodipodi.sourceforge.net/DTD/sodipodi-0.dtd"
   xmlns:inkscape="http://www.inkscape.org/namespaces/inkscape"
   width="744.09448819"
   height="1052.3622047"
   id="svg4388"
   version="1.1"
   inkscape:version="0.91 r13725"
   sodipodi:docname="executionModel.svg"
   inkscape:export-filename="/Users/george/Documents/Work/papers/usa-papers/2015-SC/images/executionModel.png"
   inkscape:export-xdpi="183.7"
   inkscape:export-ydpi="183.7">
  <defs
     id="defs4390">
    <marker
       inkscape:stockid="Arrow2Lend"
       orient="auto"
       refY="0.0"
       refX="0.0"
       id="Arrow2Lend"
       style="overflow:visible;">
      <path
         id="path3793"
         style="font-size:12.0;fill-rule:evenodd;stroke-width:0.62500000;stroke-linejoin:round;"
         d="M 8.7185878,4.0337352 L -2.2072895,0.016013256 L 8.7185884,-4.0017078 C 6.9730900,-1.6296469 6.9831476,1.6157441 8.7185878,4.0337352 z "
         transform="scale(1.1) rotate(180) translate(1,0)" />
    </marker>
    <linearGradient
       id="linearGradient4973">
      <stop
         style="stop-color:#caf4f6;stop-opacity:1;"
         offset="0"
         id="stop4975" />
      <stop
         style="stop-color:#caf4f6;stop-opacity:0;"
         offset="1"
         id="stop4977" />
    </linearGradient>
    <inkscape:perspective
       id="perspective11"
       inkscape:persp3d-origin="76.818901 : 47.456696 : 1"
       inkscape:vp_z="153.6378 : 71.185043 : 1"
       inkscape:vp_y="0 : 1000 : 0"
       inkscape:vp_x="0 : 71.185043 : 1"
       sodipodi:type="inkscape:persp3d" />
  </defs>
  <sodipodi:namedview
     id="base"
     pagecolor="#ffffff"
     bordercolor="#666666"
     borderopacity="1.0"
     inkscape:pageopacity="0.0"
     inkscape:pageshadow="2"
     inkscape:zoom="0.7"
     inkscape:cx="472.33142"
     inkscape:cy="487.72074"
     inkscape:document-units="px"
     inkscape:current-layer="layer1"
     showgrid="false"
     inkscape:window-width="1280"
     inkscape:window-height="756"
     inkscape:window-x="0"
     inkscape:window-y="0"
     inkscape:window-maximized="0"
     showguides="true"
     inkscape:guide-bbox="true" />
  <metadata
     id="metadata4393">
    <rdf:RDF>
      <cc:Work
         rdf:about="">
        <dc:format>image/svg+xml</dc:format>
        <dc:type
           rdf:resource="http://purl.org/dc/dcmitype/StillImage" />
        <dc:title />
      </cc:Work>
    </rdf:RDF>
  </metadata>
  <g
     inkscape:label="Layer 1"
     inkscape:groupmode="layer"
     id="layer1">
    <text
       xml:space="preserve"
       style="font-size:40px;font-style:normal;font-weight:normal;line-height:125%;letter-spacing:0px;word-spacing:0px;fill:#000000;fill-opacity:1;stroke:none;font-family:Sans"
       x="757.14288"
       y="18.790752"
       id="text7598"
       sodipodi:linespacing="125%"><tspan
         sodipodi:role="line"
         id="tspan7600"
         x="757.14288"
         y="18.790752" /></text>
    <path
       sodipodi:type="arc"
       style="fill:#eef9ee;fill-opacity:1;stroke:#000700;stroke-width:3.49826406999999984;stroke-linecap:round;stroke-linejoin:miter;stroke-miterlimit:4;stroke-opacity:1;stroke-dasharray:none;stroke-dashoffset:0"
       id="path3147"
       sodipodi:cx="248.57143"
       sodipodi:cy="106.6479"
       sodipodi:rx="62.857143"
       sodipodi:ry="29.285715"
       d="m 311.42857,106.6479 a 62.857143,29.285715 0 1 1 -125.71429,0 62.857143,29.285715 0 1 1 125.71429,0 z"
       transform="matrix(0.83438967,0,0,0.73524547,359.73033,299.13513)"
       inkscape:export-filename="/Users/Taveira/Desktop/executionModel.png"
       inkscape:export-xdpi="183"
       inkscape:export-ydpi="183" />
    <text
       xml:space="preserve"
       style="font-size:20px;font-style:normal;font-weight:normal;line-height:125%;letter-spacing:0px;word-spacing:0px;fill:#000000;fill-opacity:1;stroke:none;font-family:Sans;-inkscape-font-specification:Sans"
       x="523.40149"
       y="382.62305"
       id="text3149"
       sodipodi:linespacing="125%"
       inkscape:export-filename="/Users/Taveira/Desktop/executionModel.png"
       inkscape:export-xdpi="183"
       inkscape:export-ydpi="183"><tspan
         sodipodi:role="line"
         id="tspan3151"
         x="523.40149"
         y="382.62305"
         style="font-size:20px;font-weight:normal;-inkscape-font-specification:Sans">Manager</tspan></text>
    <rect
       style="opacity:1;fill:none;fill-opacity:1;stroke:#150808;stroke-opacity:1;stroke-width:2;stroke-miterlimit:4;stroke-dasharray:none"
       id="rect3153"
       width="673.19647"
       height="49.560749"
       x="130.84804"
       y="648.4494"
       ry="5.7336693"
       inkscape:export-filename="/Users/Taveira/Desktop/executionModel.png"
       inkscape:export-xdpi="183"
       inkscape:export-ydpi="183" />
    <path
       transform="matrix(0.83207352,0,0,0.73524547,213.61075,426.35732)"
       d="m 311.42857,106.6479 a 62.857143,29.285715 0 1 1 -125.71429,0 62.857143,29.285715 0 1 1 125.71429,0 z"
       sodipodi:ry="29.285715"
       sodipodi:rx="62.857143"
       sodipodi:cy="106.6479"
       sodipodi:cx="248.57143"
       id="path3197"
       style="fill:#eef9ee;fill-opacity:1;stroke:#000700;stroke-width:3.49826406999999984;stroke-linecap:round;stroke-linejoin:miter;stroke-miterlimit:4;stroke-opacity:1;stroke-dasharray:none;stroke-dashoffset:0"
       sodipodi:type="arc"
       inkscape:export-filename="/Users/Taveira/Desktop/executionModel.png"
       inkscape:export-xdpi="183"
       inkscape:export-ydpi="183" />
    <text
       sodipodi:linespacing="125%"
       id="text3199"
       y="509.98895"
       x="375.21689"
       style="font-size:20px;font-style:normal;font-weight:normal;line-height:125%;letter-spacing:0px;word-spacing:0px;fill:#000000;fill-opacity:1;stroke:none;font-family:Sans;-inkscape-font-specification:Sans"
       xml:space="preserve"
       inkscape:export-filename="/Users/Taveira/Desktop/executionModel.png"
       inkscape:export-xdpi="183"
       inkscape:export-ydpi="183"><tspan
         style="font-size:20px;font-weight:normal;-inkscape-font-specification:Sans"
         y="509.98895"
         x="375.21689"
         id="tspan3201"
         sodipodi:role="line">Worker 1</tspan></text>
    <path
       sodipodi:type="arc"
       style="fill:#eef9ee;fill-opacity:1;stroke:#000700;stroke-width:3.49826406999999984;stroke-linecap:round;stroke-linejoin:miter;stroke-miterlimit:4;stroke-opacity:1;stroke-dasharray:none;stroke-dashoffset:0"
       id="path4267"
       sodipodi:cx="248.57143"
       sodipodi:cy="106.6479"
       sodipodi:rx="62.857143"
       sodipodi:ry="29.285715"
       d="m 311.42857,106.6479 a 62.857143,29.285715 0 1 1 -125.71429,0 62.857143,29.285715 0 1 1 125.71429,0 z"
       transform="matrix(0.94658131,0,0,0.72798489,486.4479,427.25791)"
       inkscape:export-filename="/Users/Taveira/Desktop/executionModel.png"
       inkscape:export-xdpi="183"
       inkscape:export-ydpi="183" />
    <text
       xml:space="preserve"
       style="font-size:20px;font-style:normal;font-weight:normal;line-height:125%;letter-spacing:0px;word-spacing:0px;fill:#000000;fill-opacity:1;stroke:none;font-family:Sans;-inkscape-font-specification:Sans"
       x="674.21338"
       y="509.98895"
       id="text4269"
       sodipodi:linespacing="125%"
       inkscape:export-filename="/Users/Taveira/Desktop/executionModel.png"
       inkscape:export-xdpi="183"
       inkscape:export-ydpi="183"><tspan
         sodipodi:role="line"
         id="tspan4271"
         x="674.21338"
         y="509.98895"
         style="font-size:20px;font-weight:normal;-inkscape-font-specification:Sans">Worker N</tspan></text>
    <text
       sodipodi:linespacing="125%"
       id="text3227"
       y="334.00961"
       x="148.3427"
       style="font-style:normal;font-weight:normal;font-size:20px;line-height:125%;font-family:Sans;-inkscape-font-specification:Sans;letter-spacing:0px;word-spacing:0px;fill:#000000;fill-opacity:1;stroke:none"
       xml:space="preserve"
       inkscape:export-filename="/Users/Taveira/Desktop/executionModel.png"
       inkscape:export-xdpi="183"
       inkscape:export-ydpi="183"><tspan
         style="font-weight:normal;font-size:20px;-inkscape-font-specification:Sans"
         y="334.00961"
         x="148.3427"
         id="tspan3229"
         sodipodi:role="line">Aplicação </tspan><tspan
         style="font-weight:normal;font-size:20px;-inkscape-font-specification:Sans"
         y="359.00961"
         x="148.3427"
         sodipodi:role="line"
         id="tspan3428">caso de uso</tspan></text>
    <path
       sodipodi:nodetypes="csc"
       inkscape:connector-curvature="0"
       id="path3269"
       d="m 523.69831,397.14187 c 0,0 -32.53825,9.09349 -59.48794,30.78599 -39.18322,31.53959 -47.66192,53.59766 -47.66192,53.59766"
       style="fill:none;stroke:#000000;stroke-width:1.29999995;stroke-linecap:butt;stroke-linejoin:miter;stroke-miterlimit:4;stroke-opacity:1;stroke-dasharray:1.3, 3.9;stroke-dashoffset:0"
       inkscape:export-filename="/Users/Taveira/Desktop/executionModel.png"
       inkscape:export-xdpi="183"
       inkscape:export-ydpi="183" />
    <text
       sodipodi:linespacing="125%"
       id="text3271"
       y="440.7887"
       x="420.01678"
       style="font-style:normal;font-weight:normal;font-size:20px;line-height:125%;font-family:Sans;-inkscape-font-specification:Sans;letter-spacing:0px;word-spacing:0px;fill:#000000;fill-opacity:1;stroke:none"
       xml:space="preserve"
       inkscape:export-filename="/Users/Taveira/Desktop/executionModel.png"
       inkscape:export-xdpi="183"
       inkscape:export-ydpi="183"><tspan
         style="font-weight:normal;font-size:20px;-inkscape-font-specification:Sans;text-align:center;text-anchor:middle"
         id="tspan3275"
         y="440.7887"
         x="420.01678"
         sodipodi:role="line">(1) Atribui o</tspan><tspan
         style="font-weight:normal;font-size:20px;-inkscape-font-specification:Sans;text-align:center;text-anchor:middle"
         y="465.7887"
         x="420.01678"
         sodipodi:role="line"
         id="tspan3442">estágio &quot;A&quot;</tspan></text>
    <text
       xml:space="preserve"
       style="font-style:normal;font-weight:normal;font-size:20px;line-height:125%;font-family:Sans;-inkscape-font-specification:Sans;letter-spacing:0px;word-spacing:0px;fill:#000000;fill-opacity:1;stroke:none"
       x="228.4221"
       y="518.54144"
       id="text3281"
       sodipodi:linespacing="125%"
       inkscape:export-filename="/Users/Taveira/Desktop/executionModel.png"
       inkscape:export-xdpi="183"
       inkscape:export-ydpi="183"><tspan
         sodipodi:role="line"
         x="228.4221"
         y="518.54144"
         style="font-weight:normal;font-size:20px;-inkscape-font-specification:Sans;text-align:center;text-anchor:middle"
         id="tspan4279">(2) Busca os Modelos</tspan><tspan
         sodipodi:role="line"
         x="228.4221"
         y="543.54144"
         style="font-weight:normal;font-size:20px;-inkscape-font-specification:Sans;text-align:center;text-anchor:middle"
         id="tspan4335">de Região daquele estágio</tspan></text>
    <path
       style="fill:none;stroke:#000000;stroke-width:1.29999995;stroke-linecap:butt;stroke-linejoin:miter;stroke-miterlimit:4;stroke-opacity:1;stroke-dasharray:1.3, 3.9;stroke-dashoffset:0"
       d="m 432.24753,484.72174 c 0,0 31.65114,-8.99638 57.86608,-30.45728 38.11495,-31.20284 46.36249,-53.02538 46.36249,-53.02538"
       id="path3293"
       inkscape:connector-curvature="0"
       sodipodi:nodetypes="csc"
       inkscape:export-filename="/Users/Taveira/Desktop/executionModel.png"
       inkscape:export-xdpi="183"
       inkscape:export-ydpi="183" />
    <text
       xml:space="preserve"
       style="font-style:normal;font-weight:normal;font-size:20px;line-height:125%;font-family:Sans;-inkscape-font-specification:Sans;letter-spacing:0px;word-spacing:0px;fill:#000000;fill-opacity:1;stroke:none"
       x="553.19806"
       y="465.08453"
       id="text3295"
       sodipodi:linespacing="125%"
       inkscape:export-filename="/Users/Taveira/Desktop/executionModel.png"
       inkscape:export-xdpi="183"
       inkscape:export-ydpi="183"><tspan
         sodipodi:role="line"
         x="553.19806"
         y="465.08453"
         style="font-weight:normal;font-size:20px;-inkscape-font-specification:Sans;text-align:center;text-anchor:middle"
         id="tspan4391">(7) Estágio &quot;A&quot;</tspan><tspan
         sodipodi:role="line"
         x="553.19806"
         y="490.08453"
         style="font-weight:normal;font-size:20px;-inkscape-font-specification:Sans;text-align:center;text-anchor:middle"
         id="tspan3468">completo</tspan></text>
    <path
       inkscape:transform-center-y="-0.46972407"
       inkscape:transform-center-x="4.9932816"
       inkscape:connector-curvature="0"
       id="path3303"
       d="m 421.13108,474.14837 -4.35351,6.80833"
       style="fill:none;stroke:#000000;stroke-width:1px;stroke-linecap:butt;stroke-linejoin:miter;stroke-opacity:1;marker-end:url(#Arrow2Lend)"
       inkscape:export-filename="/Users/Taveira/Desktop/executionModel.png"
       inkscape:export-xdpi="183"
       inkscape:export-ydpi="183" />
    <path
       inkscape:transform-center-y="-3.2586345"
       inkscape:transform-center-x="9.3681908"
       inkscape:connector-curvature="0"
       id="path3305"
       d="m 532.94894,407.97408 3.94594,-7.05236"
       style="fill:none;stroke:#000000;stroke-width:1px;stroke-linecap:butt;stroke-linejoin:miter;stroke-opacity:1;marker-end:url(#Arrow2Lend)"
       inkscape:export-filename="/Users/Taveira/Desktop/executionModel.png"
       inkscape:export-xdpi="183"
       inkscape:export-ydpi="183" />
    <text
       xml:space="preserve"
       style="font-style:normal;font-weight:normal;font-size:20px;line-height:125%;font-family:Sans;-inkscape-font-specification:Sans;letter-spacing:0px;word-spacing:0px;fill:#000000;fill-opacity:1;stroke:none"
       x="737.00256"
       y="432.5639"
       id="text3355"
       sodipodi:linespacing="125%"
       inkscape:export-filename="/Users/Taveira/Desktop/executionModel.png"
       inkscape:export-xdpi="183"
       inkscape:export-ydpi="183"><tspan
         sodipodi:role="line"
         x="740.18616"
         y="432.5639"
         id="tspan3359"
         style="font-weight:normal;font-size:20px;-inkscape-font-specification:Sans;text-align:center;text-anchor:middle"> (X) Atribui o </tspan><tspan
         sodipodi:role="line"
         x="737.00256"
         y="457.5639"
         style="font-weight:normal;font-size:20px;-inkscape-font-specification:Sans;text-align:center;text-anchor:middle"
         id="tspan3472">estágio &quot;B&quot;</tspan></text>
    <text
       xml:space="preserve"
       style="font-style:normal;font-weight:normal;font-size:20px;line-height:125%;font-family:Sans;-inkscape-font-specification:Sans;letter-spacing:0px;word-spacing:0px;fill:#000000;fill-opacity:1;stroke:none"
       x="565.81927"
       y="321.77936"
       id="text3431"
       sodipodi:linespacing="125%"
       inkscape:export-filename="/Users/Taveira/Desktop/executionModel.png"
       inkscape:export-xdpi="183"
       inkscape:export-ydpi="183"><tspan
         sodipodi:role="line"
         x="569.00287"
         y="321.77936"
         style="font-weight:normal;font-size:20px;-inkscape-font-specification:Sans;text-align:center;text-anchor:middle"
         id="tspan3434">O Manager da aplicação instancia os </tspan><tspan
         sodipodi:role="line"
         x="569.00287"
         y="346.77936"
         style="font-weight:normal;font-size:20px;-inkscape-font-specification:Sans;text-align:center;text-anchor:middle"
         id="tspan3438">componentes do fluxo de dados </tspan></text>
    <path
       style="fill:none;stroke:#000000;stroke-width:1.29999995;stroke-linecap:butt;stroke-linejoin:miter;stroke-miterlimit:4;stroke-opacity:1;stroke-dasharray:1.3, 3.9;stroke-dashoffset:0"
       d="m 603.75512,393.12156 c 0,0 32.53825,9.09349 59.48794,30.78599 39.18322,31.53959 47.66192,53.59766 47.66192,53.59766"
       id="path4237"
       inkscape:connector-curvature="0"
       sodipodi:nodetypes="csc"
       inkscape:export-filename="/Users/Taveira/Desktop/executionModel.png"
       inkscape:export-xdpi="183"
       inkscape:export-ydpi="183" />
    <path
       sodipodi:nodetypes="csc"
       inkscape:connector-curvature="0"
       id="path4239"
       d="m 695.21482,480.71035 c 0,0 -31.38542,-8.82511 -57.38028,-29.87745 -37.79498,-30.60882 -45.97328,-52.01591 -45.97328,-52.01591"
       style="fill:none;stroke:#000000;stroke-width:1.28215015;stroke-linecap:butt;stroke-linejoin:miter;stroke-miterlimit:4;stroke-opacity:1;stroke-dasharray:1.28215022, 3.84645067;stroke-dashoffset:0"
       inkscape:export-filename="/Users/Taveira/Desktop/executionModel.png"
       inkscape:export-xdpi="183"
       inkscape:export-ydpi="183" />
    <path
       style="fill:none;stroke:#000000;stroke-width:1px;stroke-linecap:butt;stroke-linejoin:miter;stroke-opacity:1;marker-end:url(#Arrow2Lend)"
       d="m 707.29389,471.57237 4.08988,6.96988"
       id="path4241"
       inkscape:connector-curvature="0"
       inkscape:transform-center-x="-4.946897"
       inkscape:transform-center-y="-0.15376397"
       inkscape:export-filename="/Users/Taveira/Desktop/executionModel.png"
       inkscape:export-xdpi="183"
       inkscape:export-ydpi="183" />
    <path
       style="fill:none;stroke:#000000;stroke-width:1px;stroke-linecap:butt;stroke-linejoin:miter;stroke-opacity:1;marker-end:url(#Arrow2Lend)"
       d="m 595.64754,404.44118 -4.39328,-6.78272"
       id="path4243"
       inkscape:connector-curvature="0"
       inkscape:transform-center-x="-8.9691416"
       inkscape:transform-center-y="-3.5887095"
       inkscape:export-filename="/Users/Taveira/Desktop/executionModel.png"
       inkscape:export-xdpi="183"
       inkscape:export-ydpi="183" />
    <path
       style="fill:none;stroke:#000000;stroke-width:1.34075773;stroke-linecap:butt;stroke-linejoin:miter;stroke-miterlimit:4;stroke-opacity:1;stroke-dasharray:1.34075781, 4.02227341;stroke-dashoffset:0"
       d="m 368.11367,510.06987 c 0,0 -42.71362,8.36995 -91.51559,46.39407 -57.72663,44.97772 -64.44171,85.59869 -64.44171,85.59869"
       id="path4283"
       inkscape:connector-curvature="0"
       sodipodi:nodetypes="csc"
       inkscape:export-filename="/Users/Taveira/Desktop/executionModel.png"
       inkscape:export-xdpi="183"
       inkscape:export-ydpi="183" />
    <path
       style="fill:none;stroke:#000000;stroke-width:1px;stroke-linecap:butt;stroke-linejoin:miter;stroke-opacity:1;marker-end:url(#Arrow2Lend)"
       d="m 212.19685,637.85093 -3.53881,7.26521"
       id="path4285"
       inkscape:connector-curvature="0"
       inkscape:transform-center-x="4.739398"
       inkscape:transform-center-y="0.53924819"
       inkscape:export-filename="/Users/Taveira/Desktop/executionModel.png"
       inkscape:export-xdpi="183"
       inkscape:export-ydpi="183" />
    <text
       xml:space="preserve"
       style="font-style:normal;font-weight:normal;font-size:32px;line-height:125%;font-family:Sans;letter-spacing:0px;word-spacing:0px;fill:#000000;fill-opacity:1;stroke:none"
       x="185.65344"
       y="681.98572"
       id="text4287"
       sodipodi:linespacing="125%"
       inkscape:export-filename="/Users/Taveira/Desktop/executionModel.png"
       inkscape:export-xdpi="183"
       inkscape:export-ydpi="183"><tspan
         sodipodi:role="line"
         id="tspan4289"
         x="185.65344"
         y="681.98572">Camada de Persistência Hierárquica</tspan></text>
    <text
       sodipodi:linespacing="125%"
       id="text4337"
       y="612.55621"
       x="309.76044"
       style="font-style:normal;font-weight:normal;font-size:20px;line-height:125%;font-family:Sans;-inkscape-font-specification:Sans;letter-spacing:0px;word-spacing:0px;fill:#000000;fill-opacity:1;stroke:none"
       xml:space="preserve"
       inkscape:export-filename="/Users/Taveira/Desktop/executionModel.png"
       inkscape:export-xdpi="183"
       inkscape:export-ydpi="183"><tspan
         id="tspan4341"
         style="font-weight:normal;font-size:20px;-inkscape-font-specification:Sans;text-align:center;text-anchor:middle"
         y="612.55621"
         x="309.76044"
         sodipodi:role="line">(3) Carrega os</tspan><tspan
         style="font-weight:normal;font-size:20px;-inkscape-font-specification:Sans;text-align:center;text-anchor:middle"
         y="637.55621"
         x="309.76044"
         sodipodi:role="line"
         id="tspan4349">Modelos de Região</tspan></text>
    <path
       sodipodi:nodetypes="csc"
       inkscape:connector-curvature="0"
       id="path4343"
       d="m 217.40696,646.21976 c 0,0 19.85467,-28.53163 70.43371,-68.01581 59.82862,-46.70475 91.91999,-58.20946 91.91999,-58.20946"
       style="fill:none;stroke:#000000;stroke-width:1.46401763;stroke-linecap:butt;stroke-linejoin:miter;stroke-miterlimit:4;stroke-opacity:1;stroke-dasharray:1.46401773, 4.39205318;stroke-dashoffset:0"
       inkscape:export-filename="/Users/Taveira/Desktop/executionModel.png"
       inkscape:export-xdpi="183"
       inkscape:export-ydpi="183" />
    <path
       style="fill:none;stroke:#000000;stroke-width:1px;stroke-linecap:butt;stroke-linejoin:miter;stroke-opacity:1;marker-end:url(#Arrow2Lend)"
       d="m 374.30867,523.26523 6.4402,-4.88158"
       id="path4345"
       inkscape:connector-curvature="0"
       inkscape:transform-center-x="6.4145459"
       inkscape:transform-center-y="-5.1932362"
       inkscape:export-filename="/Users/Taveira/Desktop/executionModel.png"
       inkscape:export-xdpi="183"
       inkscape:export-ydpi="183" />
    <path
       sodipodi:nodetypes="csc"
       inkscape:connector-curvature="0"
       id="path4351"
       d="m 465.4901,517.16222 c 0,0 38.26494,11.22744 87.93016,52.33008 57.23393,47.36646 65.68065,73.32362 65.68065,73.32362"
       style="fill:none;stroke:#000000;stroke-width:1.44035876;stroke-linecap:butt;stroke-linejoin:miter;stroke-miterlimit:4;stroke-opacity:1;stroke-dasharray:1.44035882, 4.32107646;stroke-dashoffset:0"
       inkscape:export-filename="/Users/Taveira/Desktop/executionModel.png"
       inkscape:export-xdpi="183"
       inkscape:export-ydpi="183" />
    <path
       style="fill:none;stroke:#000000;stroke-width:1.44695115;stroke-linecap:butt;stroke-linejoin:miter;stroke-miterlimit:4;stroke-opacity:1;stroke-dasharray:1.44695112, 4.34085338;stroke-dashoffset:0"
       d="m 606.22914,642.78904 c 0,0 -35.11698,-20.13714 -80.8794,-59.15722 -54.2818,-46.28434 -67.29687,-64.83515 -67.29687,-64.83515"
       id="path4353"
       inkscape:connector-curvature="0"
       sodipodi:nodetypes="csc"
       inkscape:export-filename="/Users/Taveira/Desktop/executionModel.png"
       inkscape:export-xdpi="183"
       inkscape:export-ydpi="183" />
    <path
       inkscape:transform-center-y="-2.1172291"
       inkscape:transform-center-x="-5.2883516"
       inkscape:connector-curvature="0"
       id="path4355"
       d="m 602.58024,640.47307 5.55097,5.87308"
       style="fill:none;stroke:#000000;stroke-width:1px;stroke-linecap:butt;stroke-linejoin:miter;stroke-opacity:1;marker-end:url(#Arrow2Lend)"
       inkscape:export-filename="/Users/Taveira/Desktop/executionModel.png"
       inkscape:export-xdpi="183"
       inkscape:export-ydpi="183" />
    <path
       inkscape:transform-center-y="-5.5459645"
       inkscape:transform-center-x="-5.3912808"
       inkscape:connector-curvature="0"
       id="path4357"
       d="m 472.29866,520.26075 -6.94146,-4.13791"
       style="fill:none;stroke:#000000;stroke-width:1px;stroke-linecap:butt;stroke-linejoin:miter;stroke-opacity:1;marker-end:url(#Arrow2Lend)"
       inkscape:export-filename="/Users/Taveira/Desktop/executionModel.png"
       inkscape:export-xdpi="183"
       inkscape:export-ydpi="183" />
    <text
       xml:space="preserve"
       style="font-style:normal;font-weight:normal;font-size:20px;line-height:125%;font-family:Sans;-inkscape-font-specification:Sans;letter-spacing:0px;word-spacing:0px;fill:#000000;fill-opacity:1;stroke:none"
       x="412.79599"
       y="560.9837"
       id="text4359"
       sodipodi:linespacing="125%"
       inkscape:export-filename="/Users/Taveira/Desktop/executionModel.png"
       inkscape:export-xdpi="183"
       inkscape:export-ydpi="183"><tspan
         sodipodi:role="line"
         x="412.79599"
         y="560.9837"
         style="font-weight:normal;font-size:20px;-inkscape-font-specification:Sans;text-align:center;text-anchor:middle"
         id="tspan4389">(4) Execução</tspan><tspan
         sodipodi:role="line"
         x="412.79599"
         y="585.9837"
         style="font-weight:normal;font-size:20px;-inkscape-font-specification:Sans;text-align:center;text-anchor:middle"
         id="tspan3454">do estágio &quot;A&quot;</tspan></text>
    <text
       sodipodi:linespacing="125%"
       id="text4369"
       y="615.76544"
       x="513.3952"
       style="font-style:normal;font-weight:normal;font-size:20px;line-height:125%;font-family:Sans;-inkscape-font-specification:Sans;letter-spacing:0px;word-spacing:0px;fill:#000000;fill-opacity:1;stroke:none"
       xml:space="preserve"
       inkscape:export-filename="/Users/Taveira/Desktop/executionModel.png"
       inkscape:export-xdpi="183"
       inkscape:export-ydpi="183"><tspan
         style="font-weight:normal;font-size:20px;-inkscape-font-specification:Sans;text-align:center;text-anchor:middle"
         y="615.76544"
         x="513.3952"
         sodipodi:role="line"
         id="tspan4377">(5) Gravação dos</tspan><tspan
         style="font-weight:normal;font-size:20px;-inkscape-font-specification:Sans;text-align:center;text-anchor:middle"
         y="640.76544"
         x="513.3952"
         sodipodi:role="line"
         id="tspan3458">Modelos de Região</tspan></text>
    <text
       xml:space="preserve"
       style="font-style:normal;font-weight:normal;font-size:20px;line-height:125%;font-family:Sans;-inkscape-font-specification:Sans;letter-spacing:0px;word-spacing:0px;fill:#000000;fill-opacity:1;stroke:none"
       x="616.42078"
       y="547.73535"
       id="text4379"
       sodipodi:linespacing="125%"
       inkscape:export-filename="/Users/Taveira/Desktop/executionModel.png"
       inkscape:export-xdpi="183"
       inkscape:export-ydpi="183"><tspan
         id="tspan4383"
         sodipodi:role="line"
         x="616.42078"
         y="547.73535"
         style="font-weight:normal;font-size:20px;-inkscape-font-specification:Sans;text-align:center;text-anchor:middle">(6) Fim da gravação</tspan><tspan
         sodipodi:role="line"
         x="616.42078"
         y="572.73535"
         style="font-weight:normal;font-size:20px;-inkscape-font-specification:Sans;text-align:center;text-anchor:middle"
         id="tspan3462">dos dados</tspan></text>
    <path
       sodipodi:type="arc"
       style="fill:#11040a;fill-opacity:1;stroke:#000000;stroke-width:1.29999995;stroke-linejoin:round;stroke-miterlimit:4;stroke-opacity:1;stroke-dasharray:none;stroke-dashoffset:0"
       id="path4399"
       sodipodi:cx="492.44937"
       sodipodi:cy="499.30365"
       sodipodi:rx="6.5659914"
       sodipodi:ry="4.5456862"
       d="m 499.01536,499.30365 a 6.5659914,4.5456862 0 1 1 -13.13198,0 6.5659914,4.5456862 0 1 1 13.13198,0 z"
       transform="matrix(0.49994223,0,0,0.76339661,357.3698,124.74391)"
       inkscape:export-filename="/Users/Taveira/Desktop/executionModel.png"
       inkscape:export-xdpi="183"
       inkscape:export-ydpi="183" />
    <rect
       style="fill:#f0dcf0;fill-opacity:1;stroke:#000000;stroke-width:1.28290032999999992;stroke-linejoin:round;stroke-miterlimit:4;stroke-opacity:1;stroke-dasharray:none;stroke-dashoffset:0;opacity:0.79741379"
       id="rect4401"
       width="191.40927"
       height="30.410414"
       x="160.72841"
       y="424.07648"
       ry="3.6071742"
       inkscape:export-filename="/Users/Taveira/Desktop/executionModel.png"
       inkscape:export-xdpi="183"
       inkscape:export-ydpi="183" />
    <text
       xml:space="preserve"
       style="font-size:20px;font-style:normal;font-weight:normal;line-height:125%;letter-spacing:0px;word-spacing:0px;fill:#000000;fill-opacity:1;stroke:none;font-family:Sans;-inkscape-font-specification:Sans"
       x="255.72206"
       y="444.67953"
       id="text4403"
       sodipodi:linespacing="125%"
       inkscape:export-filename="/Users/Taveira/Desktop/executionModel.png"
       inkscape:export-xdpi="183"
       inkscape:export-ydpi="183"><tspan
         sodipodi:role="line"
         x="255.72206"
         y="444.67953"
         style="font-size:20px;font-weight:normal;text-align:center;text-anchor:middle;-inkscape-font-specification:Sans"
         id="tspan3080">Region Templates</tspan></text>
    <path
       style="fill:none;stroke:#000000;stroke-width:1.56123722;stroke-linecap:butt;stroke-linejoin:miter;stroke-miterlimit:4;stroke-opacity:1;stroke-dasharray:none"
       d="m 353.38767,467.15832 c 0,0 -0.3879,-27.15164 25.70466,-47.50359 26.09256,-20.35194 137.17063,-36.74749 137.17063,-36.74749"
       id="path4409"
       inkscape:connector-curvature="0"
       sodipodi:nodetypes="czc"
       inkscape:export-filename="/Users/Taveira/Desktop/executionModel.png"
       inkscape:export-xdpi="183"
       inkscape:export-ydpi="183" />
    <path
       sodipodi:nodetypes="czc"
       inkscape:connector-curvature="0"
       id="path3092"
       d="m 309.89343,346.48669 c 0,0 10.96532,12.30839 77.02671,22.03043 66.06139,9.72205 129.30833,5.83695 129.30833,5.83695"
       style="fill:none;stroke:#000000;stroke-width:1.63021433;stroke-linecap:butt;stroke-linejoin:miter;stroke-miterlimit:4;stroke-opacity:1;stroke-dasharray:none"
       inkscape:export-filename="/Users/Taveira/Desktop/executionModel.png"
       inkscape:export-xdpi="183"
       inkscape:export-ydpi="183" />
    <path
       transform="matrix(0.49994223,0,0,0.76339661,341.3698,124.74391)"
       d="m 499.01536,499.30365 a 6.5659914,4.5456862 0 1 1 -13.13198,0 6.5659914,4.5456862 0 1 1 13.13198,0 z"
       sodipodi:ry="4.5456862"
       sodipodi:rx="6.5659914"
       sodipodi:cy="499.30365"
       sodipodi:cx="492.44937"
       id="path3094"
       style="fill:#11040a;fill-opacity:1;stroke:#000000;stroke-width:1.29999995;stroke-linejoin:round;stroke-miterlimit:4;stroke-opacity:1;stroke-dasharray:none;stroke-dashoffset:0"
       sodipodi:type="arc"
       inkscape:export-filename="/Users/Taveira/Desktop/executionModel.png"
       inkscape:export-xdpi="183"
       inkscape:export-ydpi="183" />
    <path
       sodipodi:type="arc"
       style="fill:#11040a;fill-opacity:1;stroke:#000000;stroke-width:1.29999995;stroke-linejoin:round;stroke-miterlimit:4;stroke-opacity:1;stroke-dasharray:none;stroke-dashoffset:0"
       id="path3096"
       sodipodi:cx="492.44937"
       sodipodi:cy="499.30365"
       sodipodi:rx="6.5659914"
       sodipodi:ry="4.5456862"
       d="m 499.01536,499.30365 a 6.5659914,4.5456862 0 1 1 -13.13198,0 6.5659914,4.5456862 0 1 1 13.13198,0 z"
       transform="matrix(0.49994223,0,0,0.76339661,325.3698,124.74391)"
       inkscape:export-filename="/Users/Taveira/Desktop/executionModel.png"
       inkscape:export-xdpi="183"
       inkscape:export-ydpi="183" />
    <rect
       style="fill:#e0e7f4;fill-opacity:1;stroke:none"
       id="rect3855"
       width="43.550751"
       height="21.526615"
       x="209.29865"
       y="366.21472"
       ry="0"
       inkscape:export-filename="/Users/Taveira/Desktop/executionModel.png"
       inkscape:export-xdpi="183"
       inkscape:export-ydpi="183" />
    <text
       xml:space="preserve"
       style="font-size:21.17218018px;font-style:normal;font-weight:normal;line-height:125%;letter-spacing:0px;word-spacing:0px;fill:#000000;fill-opacity:1;stroke:none;font-family:Sans"
       x="226.18993"
       y="380.89569"
       id="text3857"
       sodipodi:linespacing="125%"
       transform="scale(0.9899216,1.010181)"
       inkscape:export-filename="/Users/Taveira/Desktop/executionModel.png"
       inkscape:export-xdpi="183"
       inkscape:export-ydpi="183"><tspan
         sodipodi:role="line"
         id="tspan3859"
         x="226.18993"
         y="380.89569">B</tspan></text>
    <rect
       ry="0"
       y="379.96396"
       x="137.57599"
       height="21.526615"
       width="43.550751"
       id="rect3861"
       style="fill:#e0e7f4;fill-opacity:1;stroke:none"
       inkscape:export-filename="/Users/Taveira/Desktop/executionModel.png"
       inkscape:export-xdpi="183"
       inkscape:export-ydpi="183" />
    <text
       sodipodi:linespacing="125%"
       id="text3863"
       y="394.50635"
       x="153.73708"
       style="font-size:21.17218018px;font-style:normal;font-weight:normal;line-height:125%;letter-spacing:0px;word-spacing:0px;fill:#000000;fill-opacity:1;stroke:none;font-family:Sans"
       xml:space="preserve"
       transform="scale(0.9899216,1.010181)"
       inkscape:export-filename="/Users/Taveira/Desktop/executionModel.png"
       inkscape:export-xdpi="183"
       inkscape:export-ydpi="183"><tspan
         y="394.50635"
         x="153.73708"
         id="tspan3865"
         sodipodi:role="line">A</tspan></text>
    <rect
       ry="0"
       y="366.21472"
       x="286.19293"
       height="21.526615"
       width="43.550751"
       id="rect3867"
       style="fill:#e0e7f4;fill-opacity:1;stroke:none"
       inkscape:export-filename="/Users/Taveira/Desktop/executionModel.png"
       inkscape:export-xdpi="183"
       inkscape:export-ydpi="183" />
    <text
       sodipodi:linespacing="125%"
       id="text3869"
       y="380.89569"
       x="303.8671"
       style="font-size:21.17218018px;font-style:normal;font-weight:normal;line-height:125%;letter-spacing:0px;word-spacing:0px;fill:#000000;fill-opacity:1;stroke:none;font-family:Sans"
       xml:space="preserve"
       transform="scale(0.9899216,1.010181)"
       inkscape:export-filename="/Users/Taveira/Desktop/executionModel.png"
       inkscape:export-xdpi="183"
       inkscape:export-ydpi="183"><tspan
         y="380.89569"
         x="303.8671"
         id="tspan3871"
         sodipodi:role="line">D</tspan></text>
    <path
       style="fill:none;stroke:#000000;stroke-width:0.96237183px;stroke-linecap:butt;stroke-linejoin:miter;stroke-opacity:1;marker-end:url(#Arrow2Lend)"
       d="m 255.29911,376.63082 27.8997,0"
       id="path3873"
       inkscape:connector-curvature="0"
       inkscape:export-filename="/Users/Taveira/Desktop/executionModel.png"
       inkscape:export-xdpi="183"
       inkscape:export-ydpi="183" />
    <rect
       ry="0"
       y="394.26877"
       x="209.29865"
       height="21.526615"
       width="43.550751"
       id="rect4057"
       style="fill:#e0e7f4;fill-opacity:1;stroke:none"
       inkscape:export-filename="/Users/Taveira/Desktop/executionModel.png"
       inkscape:export-xdpi="183"
       inkscape:export-ydpi="183" />
    <text
       sodipodi:linespacing="125%"
       id="text4059"
       y="408.66699"
       x="226.18993"
       style="font-size:21.17218018px;font-style:normal;font-weight:normal;line-height:125%;letter-spacing:0px;word-spacing:0px;fill:#000000;fill-opacity:1;stroke:none;font-family:Sans"
       xml:space="preserve"
       transform="scale(0.9899216,1.010181)"
       inkscape:export-filename="/Users/Taveira/Desktop/executionModel.png"
       inkscape:export-xdpi="183"
       inkscape:export-ydpi="183"><tspan
         y="408.66699"
         x="226.18993"
         id="tspan4061"
         sodipodi:role="line">C</tspan></text>
    <path
       sodipodi:nodetypes="czc"
       inkscape:connector-curvature="0"
       id="path4247"
       d="m 181.77262,396.2583 c 0,0 8.66224,4.89745 13.71086,6.34395 5.04861,1.4465 13.59366,2.09352 13.59366,2.09352"
       style="fill:none;stroke:#000000;stroke-width:0.89245504px;stroke-linecap:butt;stroke-linejoin:miter;stroke-opacity:1;marker-end:url(#Arrow2Lend)"
       inkscape:export-filename="/Users/Taveira/Desktop/executionModel.png"
       inkscape:export-xdpi="183"
       inkscape:export-ydpi="183" />
    <path
       style="fill:none;stroke:#000000;stroke-width:0.89245504px;stroke-linecap:butt;stroke-linejoin:miter;stroke-opacity:1;marker-end:url(#Arrow2Lend)"
       d="m 181.77262,386.10169 c 0,0 8.66224,-4.89745 13.71086,-6.34395 5.04861,-1.4465 13.59366,-2.09352 13.59366,-2.09352"
       id="path4249"
       inkscape:connector-curvature="0"
       sodipodi:nodetypes="czc"
       inkscape:export-filename="/Users/Taveira/Desktop/executionModel.png"
       inkscape:export-xdpi="183"
       inkscape:export-ydpi="183" />
    <rect
       style="fill:#e0e7f4;fill-opacity:1;stroke:none"
       id="rect4251"
       width="43.550751"
       height="21.526615"
       x="353.01611"
       y="388.43573"
       ry="0"
       inkscape:export-filename="/Users/Taveira/Desktop/executionModel.png"
       inkscape:export-xdpi="183"
       inkscape:export-ydpi="183" />
    <text
       xml:space="preserve"
       style="font-size:21.17218018px;font-style:normal;font-weight:normal;line-height:125%;letter-spacing:0px;word-spacing:0px;fill:#000000;fill-opacity:1;stroke:none;font-family:Sans"
       x="371.37061"
       y="402.89276"
       id="text4253"
       sodipodi:linespacing="125%"
       transform="scale(0.9899216,1.010181)"
       inkscape:export-filename="/Users/Taveira/Desktop/executionModel.png"
       inkscape:export-xdpi="183"
       inkscape:export-ydpi="183"><tspan
         sodipodi:role="line"
         id="tspan4255"
         x="371.37061"
         y="402.89276">E</tspan></text>
    <path
       style="fill:none;stroke:#000000;stroke-width:0.89245504px;stroke-linecap:butt;stroke-linejoin:miter;stroke-opacity:1;marker-end:url(#Arrow2Lend)"
       d="m 328.7564,378.20372 c 0,0 7.98177,1.42542 14.39134,6.34395 6.40958,4.91854 10.19126,13.20403 10.19126,13.20403"
       id="path4257"
       inkscape:connector-curvature="0"
       sodipodi:nodetypes="czc"
       inkscape:export-filename="/Users/Taveira/Desktop/executionModel.png"
       inkscape:export-xdpi="183"
       inkscape:export-ydpi="183" />
    <path
       sodipodi:nodetypes="czc"
       inkscape:connector-curvature="0"
       id="path4259"
       d="m 253.90355,406.6744 c 0,0 14.1061,-0.6578 41.61056,-1.29452 27.50447,-0.63673 57.1444,-4.85056 57.1444,-4.85056"
       style="fill:none;stroke:#000000;stroke-width:0.89245504px;stroke-linecap:butt;stroke-linejoin:miter;stroke-opacity:1;marker-end:url(#Arrow2Lend)"
       inkscape:export-filename="/Users/Taveira/Desktop/executionModel.png"
       inkscape:export-xdpi="183"
       inkscape:export-ydpi="183" />
  </g>
</svg>
